-- Merging decision tree log ---
manifest
ADDED from D:\Flutter\mkonnekt_kitchen\android\app\src\main\AndroidManifest.xml:1:1-60:12
INJECTED from D:\Flutter\mkonnekt_kitchen\android\app\src\main\AndroidManifest.xml:1:1-60:12
INJECTED from D:\Flutter\mkonnekt_kitchen\android\app\src\main\AndroidManifest.xml:1:1-60:12
INJECTED from D:\Flutter\mkonnekt_kitchen\android\app\src\main\AndroidManifest.xml:1:1-60:12
MERGED from D:\Flutter\mkonnekt_kitchen\android\app\src\main\AndroidManifest.xml:1:1-60:12
MERGED from [:firebase_messaging] D:\Flutter\mkonnekt_kitchen\build\firebase_messaging\intermediates\library_manifest\debug\AndroidManifest.xml:2:1-20:12
MERGED from [:shared_preferences] D:\Flutter\mkonnekt_kitchen\build\shared_preferences\intermediates\library_manifest\debug\AndroidManifest.xml:2:1-7:12
MERGED from [:stripe_payment] D:\Flutter\mkonnekt_kitchen\build\stripe_payment\intermediates\library_manifest\debug\AndroidManifest.xml:2:1-37:12
MERGED from [:flutter_facebook_login] D:\Flutter\mkonnekt_kitchen\build\flutter_facebook_login\intermediates\library_manifest\debug\AndroidManifest.xml:2:1-7:12
MERGED from [:url_launcher] D:\Flutter\mkonnekt_kitchen\build\url_launcher\intermediates\library_manifest\debug\AndroidManifest.xml:2:1-14:12
MERGED from [:sqflite] D:\Flutter\mkonnekt_kitchen\build\sqflite\intermediates\library_manifest\debug\AndroidManifest.xml:2:1-7:12
MERGED from [:google_sign_in] D:\Flutter\mkonnekt_kitchen\build\google_sign_in\intermediates\library_manifest\debug\AndroidManifest.xml:2:1-9:12
MERGED from [:webview_flutter] D:\Flutter\mkonnekt_kitchen\build\webview_flutter\intermediates\library_manifest\debug\AndroidManifest.xml:2:1-7:12
MERGED from [androidx.multidex:multidex:2.0.0] C:\Users\Dell\.gradle\caches\transforms-2\files-2.1\8711d713e45333f19f1f42b87a430afd\multidex-2.0.0\AndroidManifest.xml:17:1-22:12
MERGED from [com.stripe:stripe-android:10.4.6] C:\Users\Dell\.gradle\caches\transforms-2\files-2.1\f8238e894c4fdb3dcb235954864b57ee\jetified-stripe-android-10.4.6\AndroidManifest.xml:2:1-29:12
MERGED from [com.stripe:stripe-3ds2-android:1.2.2] C:\Users\Dell\.gradle\caches\transforms-2\files-2.1\3d5ac9062bdc253556a103c24bdc507e\jetified-stripe-3ds2-android-1.2.2\AndroidManifest.xml:2:1-20:12
MERGED from [com.google.android.gms:play-services-wallet:18.0.0] C:\Users\Dell\.gradle\caches\transforms-2\files-2.1\b0aaccc00acf043e666f97841b8dc04f\jetified-play-services-wallet-18.0.0\AndroidManifest.xml:17:1-22:12
MERGED from [com.google.firebase:firebase-messaging:20.0.1] C:\Users\Dell\.gradle\caches\transforms-2\files-2.1\81ff080171b921d868afcedf0ca450c4\jetified-firebase-messaging-20.0.1\AndroidManifest.xml:17:1-37:12
MERGED from [com.google.android.gms:play-services-auth:16.0.1] C:\Users\Dell\.gradle\caches\transforms-2\files-2.1\d0b0a2e65d268546cefecfad8e618a2f\jetified-play-services-auth-16.0.1\AndroidManifest.xml:17:1-39:12
MERGED from [com.google.firebase:firebase-iid:20.0.1] C:\Users\Dell\.gradle\caches\transforms-2\files-2.1\1fe8d62c45efdf0330e5e2c63d504a6f\jetified-firebase-iid-20.0.1\AndroidManifest.xml:17:1-47:12
MERGED from [com.google.firebase:firebase-common:19.2.0] C:\Users\Dell\.gradle\caches\transforms-2\files-2.1\1dc8d1463531e990b2f121f28ad15644\jetified-firebase-common-19.2.0\AndroidManifest.xml:2:1-26:12
MERGED from [com.google.android.gms:play-services-identity:17.0.0] C:\Users\Dell\.gradle\caches\transforms-2\files-2.1\91b1eaaec5dde3edbb0b57279fc07e62\jetified-play-services-identity-17.0.0\AndroidManifest.xml:17:1-24:12
MERGED from [com.google.android.gms:play-services-maps:17.0.0] C:\Users\Dell\.gradle\caches\transforms-2\files-2.1\33f62faefffd312b864245f962a80757\jetified-play-services-maps-17.0.0\AndroidManifest.xml:17:1-38:12
MERGED from [com.google.android.gms:play-services-auth-api-phone:16.0.0] C:\Users\Dell\.gradle\caches\transforms-2\files-2.1\8c3c4107250f4f81e5a03ec3e0fc0362\jetified-play-services-auth-api-phone-16.0.0\AndroidManifest.xml:2:1-7:12
MERGED from [com.google.android.gms:play-services-auth-base:16.0.0] C:\Users\Dell\.gradle\caches\transforms-2\files-2.1\914b5f6faf42b77f4ddc5c81e852ad53\jetified-play-services-auth-base-16.0.0\AndroidManifest.xml:2:1-7:12
MERGED from [com.google.firebase:firebase-iid-interop:17.0.0] C:\Users\Dell\.gradle\caches\transforms-2\files-2.1\c2aefc6065d606167b76ea2051abd40b\jetified-firebase-iid-interop-17.0.0\AndroidManifest.xml:2:1-10:12
MERGED from [com.google.android.gms:play-services-base:17.0.0] C:\Users\Dell\.gradle\caches\transforms-2\files-2.1\59be679b2e27841d7fa6496cc0e25cd3\jetified-play-services-base-17.0.0\AndroidManifest.xml:17:1-29:12
MERGED from [com.google.android.gms:play-services-tasks:17.0.0] C:\Users\Dell\.gradle\caches\transforms-2\files-2.1\bc331e7f7c7638428d1149a7e6a02e26\jetified-play-services-tasks-17.0.0\AndroidManifest.xml:2:1-9:12
MERGED from [com.google.firebase:firebase-measurement-connector:18.0.0] C:\Users\Dell\.gradle\caches\transforms-2\files-2.1\47d536c34d10da383d210bffaff788a6\jetified-firebase-measurement-connector-18.0.0\AndroidManifest.xml:17:1-25:12
MERGED from [com.google.android.gms:play-services-stats:17.0.0] C:\Users\Dell\.gradle\caches\transforms-2\files-2.1\326041ba194fdf8e14c6c414f363d072\jetified-play-services-stats-17.0.0\AndroidManifest.xml:2:1-9:12
MERGED from [com.google.android.gms:play-services-basement:17.0.0] C:\Users\Dell\.gradle\caches\transforms-2\files-2.1\b14847420912c5c19788d53567725261\jetified-play-services-basement-17.0.0\AndroidManifest.xml:17:1-28:12
MERGED from [com.google.android.material:material:1.0.0] C:\Users\Dell\.gradle\caches\transforms-2\files-2.1\183bec8115728ca3538533aff9dccffb\material-1.0.0\AndroidManifest.xml:17:1-24:12
MERGED from [com.facebook.android:facebook-login:4.39.0] C:\Users\Dell\.gradle\caches\transforms-2\files-2.1\8db305602ee99df16520358f7db79b8a\jetified-facebook-login-4.39.0\AndroidManifest.xml:21:1-31:12
MERGED from [com.facebook.android:facebook-common:4.39.0] C:\Users\Dell\.gradle\caches\transforms-2\files-2.1\4f1c44486e5cb3081ce7654f27577b09\jetified-facebook-common-4.39.0\AndroidManifest.xml:21:1-37:12
MERGED from [androidx.appcompat:appcompat:1.0.0] C:\Users\Dell\.gradle\caches\transforms-2\files-2.1\6cc1c5bf5cfa3fcc0cb4efb65c25f775\appcompat-1.0.0\AndroidManifest.xml:17:1-22:12
MERGED from [androidx.legacy:legacy-support-v4:1.0.0] C:\Users\Dell\.gradle\caches\transforms-2\files-2.1\010c51baaca01c7d7c21c311722da1b0\legacy-support-v4-1.0.0\AndroidManifest.xml:17:1-22:12
MERGED from [androidx.fragment:fragment:1.1.0] C:\Users\Dell\.gradle\caches\transforms-2\files-2.1\4213f949cf768c8d521f117ca4d3b13b\fragment-1.1.0\AndroidManifest.xml:17:1-24:12
MERGED from [androidx.webkit:webkit:1.0.0] C:\Users\Dell\.gradle\caches\transforms-2\files-2.1\9559f0967463865fc8502ac71746fd5e\webkit-1.0.0\AndroidManifest.xml:17:1-22:12
MERGED from [androidx.recyclerview:recyclerview:1.0.0] C:\Users\Dell\.gradle\caches\transforms-2\files-2.1\9396961f8a4e15ed02af482e29d645d3\recyclerview-1.0.0\AndroidManifest.xml:17:1-22:12
MERGED from [androidx.vectordrawable:vectordrawable-animated:1.0.0] C:\Users\Dell\.gradle\caches\transforms-2\files-2.1\5e32fef6f554ff3dd6be34a12f44f31a\vectordrawable-animated-1.0.0\AndroidManifest.xml:17:1-22:12
MERGED from [androidx.browser:browser:1.0.0] C:\Users\Dell\.gradle\caches\transforms-2\files-2.1\a90aace9bd56a69fd7a8ca71fabc2300\browser-1.0.0\AndroidManifest.xml:17:1-22:12
MERGED from [androidx.legacy:legacy-support-core-ui:1.0.0] C:\Users\Dell\.gradle\caches\transforms-2\files-2.1\ff7cf31b3ede8eb23ce97dc4c22c6e72\legacy-support-core-ui-1.0.0\AndroidManifest.xml:17:1-22:12
MERGED from [androidx.viewpager:viewpager:1.0.0] C:\Users\Dell\.gradle\caches\transforms-2\files-2.1\81b274069356f96ab7d5c2e2e13bf1b2\viewpager-1.0.0\AndroidManifest.xml:17:1-22:12
MERGED from [com.facebook.android:facebook-core:4.39.0] C:\Users\Dell\.gradle\caches\transforms-2\files-2.1\3904a24fd29f938c9ef9d4a89346c7f0\jetified-facebook-core-4.39.0\AndroidManifest.xml:21:1-53:12
MERGED from [androidx.legacy:legacy-support-core-utils:1.0.0] C:\Users\Dell\.gradle\caches\transforms-2\files-2.1\5412288b645301744ceb4b7087f1246c\legacy-support-core-utils-1.0.0\AndroidManifest.xml:17:1-22:12
MERGED from [androidx.loader:loader:1.0.0] C:\Users\Dell\.gradle\caches\transforms-2\files-2.1\03786c33e74738ea953c6a353b51b74c\loader-1.0.0\AndroidManifest.xml:17:1-22:12
MERGED from [androidx.activity:activity:1.0.0] C:\Users\Dell\.gradle\caches\transforms-2\files-2.1\2416e12b636234f059d653301d51c2a8\jetified-activity-1.0.0\AndroidManifest.xml:17:1-24:12
MERGED from [androidx.coordinatorlayout:coordinatorlayout:1.0.0] C:\Users\Dell\.gradle\caches\transforms-2\files-2.1\332b7cbc40d5e2b37a99eccad0f627dd\coordinatorlayout-1.0.0\AndroidManifest.xml:17:1-22:12
MERGED from [androidx.drawerlayout:drawerlayout:1.0.0] C:\Users\Dell\.gradle\caches\transforms-2\files-2.1\c5dcc160a9303a073fdbcf2f4e4e9f9f\drawerlayout-1.0.0\AndroidManifest.xml:17:1-22:12
MERGED from [androidx.slidingpanelayout:slidingpanelayout:1.0.0] C:\Users\Dell\.gradle\caches\transforms-2\files-2.1\b9313d63d55dd005291ed1e250fca8ac\slidingpanelayout-1.0.0\AndroidManifest.xml:17:1-22:12
MERGED from [androidx.customview:customview:1.0.0] C:\Users\Dell\.gradle\caches\transforms-2\files-2.1\b4ab0db884e1aff98e46ee040d9db027\customview-1.0.0\AndroidManifest.xml:17:1-22:12
MERGED from [androidx.transition:transition:1.0.0] C:\Users\Dell\.gradle\caches\transforms-2\files-2.1\6773596d2f09054d61e917ec58a305a0\transition-1.0.0\AndroidManifest.xml:17:1-22:12
MERGED from [androidx.vectordrawable:vectordrawable:1.0.0] C:\Users\Dell\.gradle\caches\transforms-2\files-2.1\4572da71ae0f4771d51dc0ffb1dc561b\vectordrawable-1.0.0\AndroidManifest.xml:17:1-22:12
MERGED from [androidx.media:media:1.0.0] C:\Users\Dell\.gradle\caches\transforms-2\files-2.1\0ef81f3aeb6fe6022af4b596284f4e24\media-1.0.0\AndroidManifest.xml:17:1-22:12
MERGED from [androidx.swiperefreshlayout:swiperefreshlayout:1.0.0] C:\Users\Dell\.gradle\caches\transforms-2\files-2.1\2ce0ff4413c590b63531a9c082210749\swiperefreshlayout-1.0.0\AndroidManifest.xml:17:1-22:12
MERGED from [androidx.asynclayoutinflater:asynclayoutinflater:1.0.0] C:\Users\Dell\.gradle\caches\transforms-2\files-2.1\f94b10e69dd96179b690ba39a100e24a\asynclayoutinflater-1.0.0\AndroidManifest.xml:17:1-22:12
MERGED from [androidx.core:core:1.1.0] C:\Users\Dell\.gradle\caches\transforms-2\files-2.1\034a0d6f5e1278e388e7c5fca766e350\core-1.1.0\AndroidManifest.xml:17:1-26:12
MERGED from [androidx.lifecycle:lifecycle-runtime:2.2.0] C:\Users\Dell\.gradle\caches\transforms-2\files-2.1\6a5c4f67ede945d1363bfbfa0657b6d5\lifecycle-runtime-2.2.0\AndroidManifest.xml:17:1-24:12
MERGED from [androidx.savedstate:savedstate:1.0.0] C:\Users\Dell\.gradle\caches\transforms-2\files-2.1\55f1c554ff2c018a24a9f0f2945c5a0f\jetified-savedstate-1.0.0\AndroidManifest.xml:17:1-24:12
MERGED from [androidx.lifecycle:lifecycle-livedata:2.0.0] C:\Users\Dell\.gradle\caches\transforms-2\files-2.1\9510ff3dc62e0db2e1cbdde9a471d7d1\lifecycle-livedata-2.0.0\AndroidManifest.xml:17:1-22:12
MERGED from [androidx.lifecycle:lifecycle-livedata-core:2.0.0] C:\Users\Dell\.gradle\caches\transforms-2\files-2.1\12ad8c97ddacf629ac0cdd2ef1b34a2c\lifecycle-livedata-core-2.0.0\AndroidManifest.xml:17:1-22:12
MERGED from [androidx.localbroadcastmanager:localbroadcastmanager:1.0.0] C:\Users\Dell\.gradle\caches\transforms-2\files-2.1\8332f885aec1ac491ba9e522fcaa630d\localbroadcastmanager-1.0.0\AndroidManifest.xml:17:1-22:12
MERGED from [androidx.arch.core:core-runtime:2.0.0] C:\Users\Dell\.gradle\caches\transforms-2\files-2.1\8cdaa82a4283de65b0384e1572224cbb\core-runtime-2.0.0\AndroidManifest.xml:17:1-22:12
MERGED from [androidx.versionedparcelable:versionedparcelable:1.1.0] C:\Users\Dell\.gradle\caches\transforms-2\files-2.1\08a82112e57027dc764f8a57685119ba\versionedparcelable-1.1.0\AndroidManifest.xml:17:1-27:12
MERGED from [androidx.lifecycle:lifecycle-viewmodel:2.1.0] C:\Users\Dell\.gradle\caches\transforms-2\files-2.1\9a0953bf690929d31c2ff4c3139aa834\lifecycle-viewmodel-2.1.0\AndroidManifest.xml:17:1-22:12
MERGED from [androidx.cardview:cardview:1.0.0] C:\Users\Dell\.gradle\caches\transforms-2\files-2.1\afce9cae55a453ca00dc3cd43e2be184\cardview-1.0.0\AndroidManifest.xml:17:1-22:12
MERGED from [androidx.cursoradapter:cursoradapter:1.0.0] C:\Users\Dell\.gradle\caches\transforms-2\files-2.1\28baab75c8160a126be95115f7119116\cursoradapter-1.0.0\AndroidManifest.xml:17:1-22:12
MERGED from [androidx.documentfile:documentfile:1.0.0] C:\Users\Dell\.gradle\caches\transforms-2\files-2.1\26b4c10975f40558fcd55273ae64feec\documentfile-1.0.0\AndroidManifest.xml:17:1-22:12
MERGED from [androidx.print:print:1.0.0] C:\Users\Dell\.gradle\caches\transforms-2\files-2.1\9bd8b243de2e50f18ff71ff0309d6688\print-1.0.0\AndroidManifest.xml:17:1-22:12
MERGED from [androidx.interpolator:interpolator:1.0.0] C:\Users\Dell\.gradle\caches\transforms-2\files-2.1\7edb7b372b1065d55a9e036564a02ae6\interpolator-1.0.0\AndroidManifest.xml:17:1-22:12
INJECTED from D:\Flutter\mkonnekt_kitchen\android\app\src\debug\AndroidManifest.xml:1:1-7:12
INJECTED from D:\Flutter\mkonnekt_kitchen\android\app\src\debug\AndroidManifest.xml:1:1-7:12
INJECTED from D:\Flutter\mkonnekt_kitchen\android\app\src\debug\AndroidManifest.xml:1:1-7:12
	package
		ADDED from D:\Flutter\mkonnekt_kitchen\android\app\src\main\AndroidManifest.xml:2:5-44
		INJECTED from D:\Flutter\mkonnekt_kitchen\android\app\src\main\AndroidManifest.xml
		INJECTED from D:\Flutter\mkonnekt_kitchen\android\app\src\debug\AndroidManifest.xml
	android:versionName
		INJECTED from D:\Flutter\mkonnekt_kitchen\android\app\src\main\AndroidManifest.xml
		ADDED from D:\Flutter\mkonnekt_kitchen\android\app\src\main\AndroidManifest.xml:1:1-60:12
		INJECTED from D:\Flutter\mkonnekt_kitchen\android\app\src\debug\AndroidManifest.xml
	android:versionCode
		INJECTED from D:\Flutter\mkonnekt_kitchen\android\app\src\main\AndroidManifest.xml
		ADDED from D:\Flutter\mkonnekt_kitchen\android\app\src\main\AndroidManifest.xml:1:1-60:12
		INJECTED from D:\Flutter\mkonnekt_kitchen\android\app\src\debug\AndroidManifest.xml
	xmlns:android
		ADDED from D:\Flutter\mkonnekt_kitchen\android\app\src\main\AndroidManifest.xml:1:11-69
application
ADDED from D:\Flutter\mkonnekt_kitchen\android\app\src\main\AndroidManifest.xml:4:4-59:19
MERGED from [:firebase_messaging] D:\Flutter\mkonnekt_kitchen\build\firebase_messaging\intermediates\library_manifest\debug\AndroidManifest.xml:7:5-18:19
MERGED from [:firebase_messaging] D:\Flutter\mkonnekt_kitchen\build\firebase_messaging\intermediates\library_manifest\debug\AndroidManifest.xml:7:5-18:19
MERGED from [:stripe_payment] D:\Flutter\mkonnekt_kitchen\build\stripe_payment\intermediates\library_manifest\debug\AndroidManifest.xml:11:5-35:19
MERGED from [:stripe_payment] D:\Flutter\mkonnekt_kitchen\build\stripe_payment\intermediates\library_manifest\debug\AndroidManifest.xml:11:5-35:19
MERGED from [:url_launcher] D:\Flutter\mkonnekt_kitchen\build\url_launcher\intermediates\library_manifest\debug\AndroidManifest.xml:7:5-12:19
MERGED from [:url_launcher] D:\Flutter\mkonnekt_kitchen\build\url_launcher\intermediates\library_manifest\debug\AndroidManifest.xml:7:5-12:19
MERGED from [com.stripe:stripe-android:10.4.6] C:\Users\Dell\.gradle\caches\transforms-2\files-2.1\f8238e894c4fdb3dcb235954864b57ee\jetified-stripe-android-10.4.6\AndroidManifest.xml:11:5-27:19
MERGED from [com.stripe:stripe-android:10.4.6] C:\Users\Dell\.gradle\caches\transforms-2\files-2.1\f8238e894c4fdb3dcb235954864b57ee\jetified-stripe-android-10.4.6\AndroidManifest.xml:11:5-27:19
MERGED from [com.stripe:stripe-3ds2-android:1.2.2] C:\Users\Dell\.gradle\caches\transforms-2\files-2.1\3d5ac9062bdc253556a103c24bdc507e\jetified-stripe-3ds2-android-1.2.2\AndroidManifest.xml:11:5-18:19
MERGED from [com.stripe:stripe-3ds2-android:1.2.2] C:\Users\Dell\.gradle\caches\transforms-2\files-2.1\3d5ac9062bdc253556a103c24bdc507e\jetified-stripe-3ds2-android-1.2.2\AndroidManifest.xml:11:5-18:19
MERGED from [com.google.firebase:firebase-messaging:20.0.1] C:\Users\Dell\.gradle\caches\transforms-2\files-2.1\81ff080171b921d868afcedf0ca450c4\jetified-firebase-messaging-20.0.1\AndroidManifest.xml:22:5-35:19
MERGED from [com.google.firebase:firebase-messaging:20.0.1] C:\Users\Dell\.gradle\caches\transforms-2\files-2.1\81ff080171b921d868afcedf0ca450c4\jetified-firebase-messaging-20.0.1\AndroidManifest.xml:22:5-35:19
MERGED from [com.google.android.gms:play-services-auth:16.0.1] C:\Users\Dell\.gradle\caches\transforms-2\files-2.1\d0b0a2e65d268546cefecfad8e618a2f\jetified-play-services-auth-16.0.1\AndroidManifest.xml:22:5-37:19
MERGED from [com.google.android.gms:play-services-auth:16.0.1] C:\Users\Dell\.gradle\caches\transforms-2\files-2.1\d0b0a2e65d268546cefecfad8e618a2f\jetified-play-services-auth-16.0.1\AndroidManifest.xml:22:5-37:19
MERGED from [com.google.firebase:firebase-iid:20.0.1] C:\Users\Dell\.gradle\caches\transforms-2\files-2.1\1fe8d62c45efdf0330e5e2c63d504a6f\jetified-firebase-iid-20.0.1\AndroidManifest.xml:28:5-45:19
MERGED from [com.google.firebase:firebase-iid:20.0.1] C:\Users\Dell\.gradle\caches\transforms-2\files-2.1\1fe8d62c45efdf0330e5e2c63d504a6f\jetified-firebase-iid-20.0.1\AndroidManifest.xml:28:5-45:19
MERGED from [com.google.firebase:firebase-common:19.2.0] C:\Users\Dell\.gradle\caches\transforms-2\files-2.1\1dc8d1463531e990b2f121f28ad15644\jetified-firebase-common-19.2.0\AndroidManifest.xml:12:5-24:19
MERGED from [com.google.firebase:firebase-common:19.2.0] C:\Users\Dell\.gradle\caches\transforms-2\files-2.1\1dc8d1463531e990b2f121f28ad15644\jetified-firebase-common-19.2.0\AndroidManifest.xml:12:5-24:19
MERGED from [com.google.android.gms:play-services-identity:17.0.0] C:\Users\Dell\.gradle\caches\transforms-2\files-2.1\91b1eaaec5dde3edbb0b57279fc07e62\jetified-play-services-identity-17.0.0\AndroidManifest.xml:22:5-20
MERGED from [com.google.android.gms:play-services-identity:17.0.0] C:\Users\Dell\.gradle\caches\transforms-2\files-2.1\91b1eaaec5dde3edbb0b57279fc07e62\jetified-play-services-identity-17.0.0\AndroidManifest.xml:22:5-20
MERGED from [com.google.android.gms:play-services-maps:17.0.0] C:\Users\Dell\.gradle\caches\transforms-2\files-2.1\33f62faefffd312b864245f962a80757\jetified-play-services-maps-17.0.0\AndroidManifest.xml:30:5-36:19
MERGED from [com.google.android.gms:play-services-maps:17.0.0] C:\Users\Dell\.gradle\caches\transforms-2\files-2.1\33f62faefffd312b864245f962a80757\jetified-play-services-maps-17.0.0\AndroidManifest.xml:30:5-36:19
MERGED from [com.google.firebase:firebase-iid-interop:17.0.0] C:\Users\Dell\.gradle\caches\transforms-2\files-2.1\c2aefc6065d606167b76ea2051abd40b\jetified-firebase-iid-interop-17.0.0\AndroidManifest.xml:7:5-8:19
MERGED from [com.google.firebase:firebase-iid-interop:17.0.0] C:\Users\Dell\.gradle\caches\transforms-2\files-2.1\c2aefc6065d606167b76ea2051abd40b\jetified-firebase-iid-interop-17.0.0\AndroidManifest.xml:7:5-8:19
MERGED from [com.google.android.gms:play-services-base:17.0.0] C:\Users\Dell\.gradle\caches\transforms-2\files-2.1\59be679b2e27841d7fa6496cc0e25cd3\jetified-play-services-base-17.0.0\AndroidManifest.xml:22:5-27:19
MERGED from [com.google.android.gms:play-services-base:17.0.0] C:\Users\Dell\.gradle\caches\transforms-2\files-2.1\59be679b2e27841d7fa6496cc0e25cd3\jetified-play-services-base-17.0.0\AndroidManifest.xml:22:5-27:19
MERGED from [com.google.android.gms:play-services-tasks:17.0.0] C:\Users\Dell\.gradle\caches\transforms-2\files-2.1\bc331e7f7c7638428d1149a7e6a02e26\jetified-play-services-tasks-17.0.0\AndroidManifest.xml:7:5-20
MERGED from [com.google.android.gms:play-services-tasks:17.0.0] C:\Users\Dell\.gradle\caches\transforms-2\files-2.1\bc331e7f7c7638428d1149a7e6a02e26\jetified-play-services-tasks-17.0.0\AndroidManifest.xml:7:5-20
MERGED from [com.google.firebase:firebase-measurement-connector:18.0.0] C:\Users\Dell\.gradle\caches\transforms-2\files-2.1\47d536c34d10da383d210bffaff788a6\jetified-firebase-measurement-connector-18.0.0\AndroidManifest.xml:22:5-23:19
MERGED from [com.google.firebase:firebase-measurement-connector:18.0.0] C:\Users\Dell\.gradle\caches\transforms-2\files-2.1\47d536c34d10da383d210bffaff788a6\jetified-firebase-measurement-connector-18.0.0\AndroidManifest.xml:22:5-23:19
MERGED from [com.google.android.gms:play-services-stats:17.0.0] C:\Users\Dell\.gradle\caches\transforms-2\files-2.1\326041ba194fdf8e14c6c414f363d072\jetified-play-services-stats-17.0.0\AndroidManifest.xml:7:5-20
MERGED from [com.google.android.gms:play-services-stats:17.0.0] C:\Users\Dell\.gradle\caches\transforms-2\files-2.1\326041ba194fdf8e14c6c414f363d072\jetified-play-services-stats-17.0.0\AndroidManifest.xml:7:5-20
MERGED from [com.google.android.gms:play-services-basement:17.0.0] C:\Users\Dell\.gradle\caches\transforms-2\files-2.1\b14847420912c5c19788d53567725261\jetified-play-services-basement-17.0.0\AndroidManifest.xml:22:5-26:19
MERGED from [com.google.android.gms:play-services-basement:17.0.0] C:\Users\Dell\.gradle\caches\transforms-2\files-2.1\b14847420912c5c19788d53567725261\jetified-play-services-basement-17.0.0\AndroidManifest.xml:22:5-26:19
MERGED from [com.google.android.material:material:1.0.0] C:\Users\Dell\.gradle\caches\transforms-2\files-2.1\183bec8115728ca3538533aff9dccffb\material-1.0.0\AndroidManifest.xml:22:5-20
MERGED from [com.google.android.material:material:1.0.0] C:\Users\Dell\.gradle\caches\transforms-2\files-2.1\183bec8115728ca3538533aff9dccffb\material-1.0.0\AndroidManifest.xml:22:5-20
MERGED from [com.facebook.android:facebook-login:4.39.0] C:\Users\Dell\.gradle\caches\transforms-2\files-2.1\8db305602ee99df16520358f7db79b8a\jetified-facebook-login-4.39.0\AndroidManifest.xml:28:5-29:19
MERGED from [com.facebook.android:facebook-login:4.39.0] C:\Users\Dell\.gradle\caches\transforms-2\files-2.1\8db305602ee99df16520358f7db79b8a\jetified-facebook-login-4.39.0\AndroidManifest.xml:28:5-29:19
MERGED from [com.facebook.android:facebook-common:4.39.0] C:\Users\Dell\.gradle\caches\transforms-2\files-2.1\4f1c44486e5cb3081ce7654f27577b09\jetified-facebook-common-4.39.0\AndroidManifest.xml:28:5-35:19
MERGED from [com.facebook.android:facebook-common:4.39.0] C:\Users\Dell\.gradle\caches\transforms-2\files-2.1\4f1c44486e5cb3081ce7654f27577b09\jetified-facebook-common-4.39.0\AndroidManifest.xml:28:5-35:19
MERGED from [com.facebook.android:facebook-core:4.39.0] C:\Users\Dell\.gradle\caches\transforms-2\files-2.1\3904a24fd29f938c9ef9d4a89346c7f0\jetified-facebook-core-4.39.0\AndroidManifest.xml:28:5-51:19
MERGED from [com.facebook.android:facebook-core:4.39.0] C:\Users\Dell\.gradle\caches\transforms-2\files-2.1\3904a24fd29f938c9ef9d4a89346c7f0\jetified-facebook-core-4.39.0\AndroidManifest.xml:28:5-51:19
MERGED from [androidx.core:core:1.1.0] C:\Users\Dell\.gradle\caches\transforms-2\files-2.1\034a0d6f5e1278e388e7c5fca766e350\core-1.1.0\AndroidManifest.xml:24:5-89
MERGED from [androidx.core:core:1.1.0] C:\Users\Dell\.gradle\caches\transforms-2\files-2.1\034a0d6f5e1278e388e7c5fca766e350\core-1.1.0\AndroidManifest.xml:24:5-89
MERGED from [androidx.versionedparcelable:versionedparcelable:1.1.0] C:\Users\Dell\.gradle\caches\transforms-2\files-2.1\08a82112e57027dc764f8a57685119ba\versionedparcelable-1.1.0\AndroidManifest.xml:24:5-25:19
MERGED from [androidx.versionedparcelable:versionedparcelable:1.1.0] C:\Users\Dell\.gradle\caches\transforms-2\files-2.1\08a82112e57027dc764f8a57685119ba\versionedparcelable-1.1.0\AndroidManifest.xml:24:5-25:19
	android:appComponentFactory
		ADDED from [androidx.core:core:1.1.0] C:\Users\Dell\.gradle\caches\transforms-2\files-2.1\034a0d6f5e1278e388e7c5fca766e350\core-1.1.0\AndroidManifest.xml:24:18-86
	android:supportsRtl
		ADDED from [com.facebook.android:facebook-login:4.39.0] C:\Users\Dell\.gradle\caches\transforms-2\files-2.1\8db305602ee99df16520358f7db79b8a\jetified-facebook-login-4.39.0\AndroidManifest.xml:28:18-44
	android:label
		ADDED from D:\Flutter\mkonnekt_kitchen\android\app\src\main\AndroidManifest.xml:5:9-41
	android:icon
		ADDED from D:\Flutter\mkonnekt_kitchen\android\app\src\main\AndroidManifest.xml:6:9-43
	android:theme
		ADDED from [:stripe_payment] D:\Flutter\mkonnekt_kitchen\build\stripe_payment\intermediates\library_manifest\debug\AndroidManifest.xml:11:18-74
activity#com.mkonnekt.mkonnekt_kitchen.MainActivity
ADDED from D:\Flutter\mkonnekt_kitchen\android\app\src\main\AndroidManifest.xml:7:9-40:20
	android:launchMode
		ADDED from D:\Flutter\mkonnekt_kitchen\android\app\src\main\AndroidManifest.xml:9:13-43
	android:hardwareAccelerated
		ADDED from D:\Flutter\mkonnekt_kitchen\android\app\src\main\AndroidManifest.xml:12:13-47
	android:windowSoftInputMode
		ADDED from D:\Flutter\mkonnekt_kitchen\android\app\src\main\AndroidManifest.xml:13:13-55
	android:configChanges
		ADDED from D:\Flutter\mkonnekt_kitchen\android\app\src\main\AndroidManifest.xml:11:13-163
	android:theme
		ADDED from D:\Flutter\mkonnekt_kitchen\android\app\src\main\AndroidManifest.xml:10:13-47
	android:name
		ADDED from D:\Flutter\mkonnekt_kitchen\android\app\src\main\AndroidManifest.xml:8:13-41
meta-data#io.flutter.embedding.android.NormalTheme
ADDED from D:\Flutter\mkonnekt_kitchen\android\app\src\main\AndroidManifest.xml:18:13-21:17
	android:resource
		ADDED from D:\Flutter\mkonnekt_kitchen\android\app\src\main\AndroidManifest.xml:20:15-52
	android:name
		ADDED from D:\Flutter\mkonnekt_kitchen\android\app\src\main\AndroidManifest.xml:19:15-70
meta-data#io.flutter.embedding.android.SplashScreenDrawable
ADDED from D:\Flutter\mkonnekt_kitchen\android\app\src\main\AndroidManifest.xml:27:13-30:17
	android:resource
		ADDED from D:\Flutter\mkonnekt_kitchen\android\app\src\main\AndroidManifest.xml:29:15-61
	android:name
		ADDED from D:\Flutter\mkonnekt_kitchen\android\app\src\main\AndroidManifest.xml:28:15-79
intent-filter#action:name:android.intent.action.MAIN+category:name:android.intent.category.LAUNCHER
ADDED from D:\Flutter\mkonnekt_kitchen\android\app\src\main\AndroidManifest.xml:31:13-34:29
action#android.intent.action.MAIN
ADDED from D:\Flutter\mkonnekt_kitchen\android\app\src\main\AndroidManifest.xml:32:17-68
	android:name
		ADDED from D:\Flutter\mkonnekt_kitchen\android\app\src\main\AndroidManifest.xml:32:25-66
category#android.intent.category.LAUNCHER
ADDED from D:\Flutter\mkonnekt_kitchen\android\app\src\main\AndroidManifest.xml:33:17-76
	android:name
		ADDED from D:\Flutter\mkonnekt_kitchen\android\app\src\main\AndroidManifest.xml:33:27-74
intent-filter#action:name:FLUTTER_NOTIFICATION_CLICK+category:name:android.intent.category.DEFAULT
ADDED from D:\Flutter\mkonnekt_kitchen\android\app\src\main\AndroidManifest.xml:36:13-39:29
action#FLUTTER_NOTIFICATION_CLICK
ADDED from D:\Flutter\mkonnekt_kitchen\android\app\src\main\AndroidManifest.xml:37:17-69
	android:name
		ADDED from D:\Flutter\mkonnekt_kitchen\android\app\src\main\AndroidManifest.xml:37:25-66
category#android.intent.category.DEFAULT
ADDED from D:\Flutter\mkonnekt_kitchen\android\app\src\main\AndroidManifest.xml:38:17-76
	android:name
		ADDED from D:\Flutter\mkonnekt_kitchen\android\app\src\main\AndroidManifest.xml:38:27-73
meta-data#flutterEmbedding
ADDED from D:\Flutter\mkonnekt_kitchen\android\app\src\main\AndroidManifest.xml:43:9-45:33
	android:value
		ADDED from D:\Flutter\mkonnekt_kitchen\android\app\src\main\AndroidManifest.xml:45:13-30
	android:name
		ADDED from D:\Flutter\mkonnekt_kitchen\android\app\src\main\AndroidManifest.xml:44:13-44
meta-data#com.facebook.sdk.ApplicationId
ADDED from D:\Flutter\mkonnekt_kitchen\android\app\src\main\AndroidManifest.xml:47:8-106
	android:value
		ADDED from D:\Flutter\mkonnekt_kitchen\android\app\src\main\AndroidManifest.xml:47:65-104
	android:name
		ADDED from D:\Flutter\mkonnekt_kitchen\android\app\src\main\AndroidManifest.xml:47:19-64
activity#com.facebook.FacebookActivity
ADDED from D:\Flutter\mkonnekt_kitchen\android\app\src\main\AndroidManifest.xml:48:8-49:109
MERGED from [com.facebook.android:facebook-common:4.39.0] C:\Users\Dell\.gradle\caches\transforms-2\files-2.1\4f1c44486e5cb3081ce7654f27577b09\jetified-facebook-common-4.39.0\AndroidManifest.xml:29:9-32:66
MERGED from [com.facebook.android:facebook-common:4.39.0] C:\Users\Dell\.gradle\caches\transforms-2\files-2.1\4f1c44486e5cb3081ce7654f27577b09\jetified-facebook-common-4.39.0\AndroidManifest.xml:29:9-32:66
	android:label
		ADDED from D:\Flutter\mkonnekt_kitchen\android\app\src\main\AndroidManifest.xml:49:74-106
	android:configChanges
		ADDED from D:\Flutter\mkonnekt_kitchen\android\app\src\main\AndroidManifest.xml:48:63-159
	android:theme
		ADDED from [com.facebook.android:facebook-common:4.39.0] C:\Users\Dell\.gradle\caches\transforms-2\files-2.1\4f1c44486e5cb3081ce7654f27577b09\jetified-facebook-common-4.39.0\AndroidManifest.xml:32:13-63
	android:name
		ADDED from D:\Flutter\mkonnekt_kitchen\android\app\src\main\AndroidManifest.xml:48:18-62
activity#com.facebook.CustomTabActivity
ADDED from D:\Flutter\mkonnekt_kitchen\android\app\src\main\AndroidManifest.xml:51:8-58:19
MERGED from [com.facebook.android:facebook-common:4.39.0] C:\Users\Dell\.gradle\caches\transforms-2\files-2.1\4f1c44486e5cb3081ce7654f27577b09\jetified-facebook-common-4.39.0\AndroidManifest.xml:34:9-67
MERGED from [com.facebook.android:facebook-common:4.39.0] C:\Users\Dell\.gradle\caches\transforms-2\files-2.1\4f1c44486e5cb3081ce7654f27577b09\jetified-facebook-common-4.39.0\AndroidManifest.xml:34:9-67
	android:exported
		ADDED from D:\Flutter\mkonnekt_kitchen\android\app\src\main\AndroidManifest.xml:51:64-87
	android:name
		ADDED from D:\Flutter\mkonnekt_kitchen\android\app\src\main\AndroidManifest.xml:51:18-63
intent-filter#action:name:android.intent.action.VIEW+category:name:android.intent.category.BROWSABLE+category:name:android.intent.category.DEFAULT+data:scheme:@string/fb_login_protocol_scheme
ADDED from D:\Flutter\mkonnekt_kitchen\android\app\src\main\AndroidManifest.xml:52:12-57:28
action#android.intent.action.VIEW
ADDED from D:\Flutter\mkonnekt_kitchen\android\app\src\main\AndroidManifest.xml:53:16-68
	android:name
		ADDED from D:\Flutter\mkonnekt_kitchen\android\app\src\main\AndroidManifest.xml:53:24-65
category#android.intent.category.BROWSABLE
ADDED from D:\Flutter\mkonnekt_kitchen\android\app\src\main\AndroidManifest.xml:55:16-77
	android:name
		ADDED from D:\Flutter\mkonnekt_kitchen\android\app\src\main\AndroidManifest.xml:55:26-74
data
ADDED from D:\Flutter\mkonnekt_kitchen\android\app\src\main\AndroidManifest.xml:56:16-74
	android:scheme
		ADDED from D:\Flutter\mkonnekt_kitchen\android\app\src\main\AndroidManifest.xml:56:22-71
uses-sdk
INJECTED from D:\Flutter\mkonnekt_kitchen\android\app\src\main\AndroidManifest.xml reason: use-sdk injection requested
INJECTED from D:\Flutter\mkonnekt_kitchen\android\app\src\main\AndroidManifest.xml
INJECTED from D:\Flutter\mkonnekt_kitchen\android\app\src\main\AndroidManifest.xml
MERGED from [:firebase_messaging] D:\Flutter\mkonnekt_kitchen\build\firebase_messaging\intermediates\library_manifest\debug\AndroidManifest.xml:5:5-44
MERGED from [:firebase_messaging] D:\Flutter\mkonnekt_kitchen\build\firebase_messaging\intermediates\library_manifest\debug\AndroidManifest.xml:5:5-44
MERGED from [:shared_preferences] D:\Flutter\mkonnekt_kitchen\build\shared_preferences\intermediates\library_manifest\debug\AndroidManifest.xml:5:5-44
MERGED from [:shared_preferences] D:\Flutter\mkonnekt_kitchen\build\shared_preferences\intermediates\library_manifest\debug\AndroidManifest.xml:5:5-44
MERGED from [:stripe_payment] D:\Flutter\mkonnekt_kitchen\build\stripe_payment\intermediates\library_manifest\debug\AndroidManifest.xml:7:5-9:41
MERGED from [:stripe_payment] D:\Flutter\mkonnekt_kitchen\build\stripe_payment\intermediates\library_manifest\debug\AndroidManifest.xml:7:5-9:41
MERGED from [:flutter_facebook_login] D:\Flutter\mkonnekt_kitchen\build\flutter_facebook_login\intermediates\library_manifest\debug\AndroidManifest.xml:5:5-44
MERGED from [:flutter_facebook_login] D:\Flutter\mkonnekt_kitchen\build\flutter_facebook_login\intermediates\library_manifest\debug\AndroidManifest.xml:5:5-44
MERGED from [:url_launcher] D:\Flutter\mkonnekt_kitchen\build\url_launcher\intermediates\library_manifest\debug\AndroidManifest.xml:5:5-44
MERGED from [:url_launcher] D:\Flutter\mkonnekt_kitchen\build\url_launcher\intermediates\library_manifest\debug\AndroidManifest.xml:5:5-44
MERGED from [:sqflite] D:\Flutter\mkonnekt_kitchen\build\sqflite\intermediates\library_manifest\debug\AndroidManifest.xml:5:5-44
MERGED from [:sqflite] D:\Flutter\mkonnekt_kitchen\build\sqflite\intermediates\library_manifest\debug\AndroidManifest.xml:5:5-44
MERGED from [:google_sign_in] D:\Flutter\mkonnekt_kitchen\build\google_sign_in\intermediates\library_manifest\debug\AndroidManifest.xml:5:5-44
MERGED from [:google_sign_in] D:\Flutter\mkonnekt_kitchen\build\google_sign_in\intermediates\library_manifest\debug\AndroidManifest.xml:5:5-44
MERGED from [:webview_flutter] D:\Flutter\mkonnekt_kitchen\build\webview_flutter\intermediates\library_manifest\debug\AndroidManifest.xml:5:5-44
MERGED from [:webview_flutter] D:\Flutter\mkonnekt_kitchen\build\webview_flutter\intermediates\library_manifest\debug\AndroidManifest.xml:5:5-44
MERGED from [androidx.multidex:multidex:2.0.0] C:\Users\Dell\.gradle\caches\transforms-2\files-2.1\8711d713e45333f19f1f42b87a430afd\multidex-2.0.0\AndroidManifest.xml:20:5-43
MERGED from [androidx.multidex:multidex:2.0.0] C:\Users\Dell\.gradle\caches\transforms-2\files-2.1\8711d713e45333f19f1f42b87a430afd\multidex-2.0.0\AndroidManifest.xml:20:5-43
MERGED from [com.stripe:stripe-android:10.4.6] C:\Users\Dell\.gradle\caches\transforms-2\files-2.1\f8238e894c4fdb3dcb235954864b57ee\jetified-stripe-android-10.4.6\AndroidManifest.xml:7:5-9:41
MERGED from [com.stripe:stripe-android:10.4.6] C:\Users\Dell\.gradle\caches\transforms-2\files-2.1\f8238e894c4fdb3dcb235954864b57ee\jetified-stripe-android-10.4.6\AndroidManifest.xml:7:5-9:41
MERGED from [com.stripe:stripe-3ds2-android:1.2.2] C:\Users\Dell\.gradle\caches\transforms-2\files-2.1\3d5ac9062bdc253556a103c24bdc507e\jetified-stripe-3ds2-android-1.2.2\AndroidManifest.xml:7:5-9:41
MERGED from [com.stripe:stripe-3ds2-android:1.2.2] C:\Users\Dell\.gradle\caches\transforms-2\files-2.1\3d5ac9062bdc253556a103c24bdc507e\jetified-stripe-3ds2-android-1.2.2\AndroidManifest.xml:7:5-9:41
MERGED from [com.google.android.gms:play-services-wallet:18.0.0] C:\Users\Dell\.gradle\caches\transforms-2\files-2.1\b0aaccc00acf043e666f97841b8dc04f\jetified-play-services-wallet-18.0.0\AndroidManifest.xml:20:5-44
MERGED from [com.google.android.gms:play-services-wallet:18.0.0] C:\Users\Dell\.gradle\caches\transforms-2\files-2.1\b0aaccc00acf043e666f97841b8dc04f\jetified-play-services-wallet-18.0.0\AndroidManifest.xml:20:5-44
MERGED from [com.google.firebase:firebase-messaging:20.0.1] C:\Users\Dell\.gradle\caches\transforms-2\files-2.1\81ff080171b921d868afcedf0ca450c4\jetified-firebase-messaging-20.0.1\AndroidManifest.xml:20:5-44
MERGED from [com.google.firebase:firebase-messaging:20.0.1] C:\Users\Dell\.gradle\caches\transforms-2\files-2.1\81ff080171b921d868afcedf0ca450c4\jetified-firebase-messaging-20.0.1\AndroidManifest.xml:20:5-44
MERGED from [com.google.android.gms:play-services-auth:16.0.1] C:\Users\Dell\.gradle\caches\transforms-2\files-2.1\d0b0a2e65d268546cefecfad8e618a2f\jetified-play-services-auth-16.0.1\AndroidManifest.xml:20:5-44
MERGED from [com.google.android.gms:play-services-auth:16.0.1] C:\Users\Dell\.gradle\caches\transforms-2\files-2.1\d0b0a2e65d268546cefecfad8e618a2f\jetified-play-services-auth-16.0.1\AndroidManifest.xml:20:5-44
MERGED from [com.google.firebase:firebase-iid:20.0.1] C:\Users\Dell\.gradle\caches\transforms-2\files-2.1\1fe8d62c45efdf0330e5e2c63d504a6f\jetified-firebase-iid-20.0.1\AndroidManifest.xml:20:5-44
MERGED from [com.google.firebase:firebase-iid:20.0.1] C:\Users\Dell\.gradle\caches\transforms-2\files-2.1\1fe8d62c45efdf0330e5e2c63d504a6f\jetified-firebase-iid-20.0.1\AndroidManifest.xml:20:5-44
MERGED from [com.google.firebase:firebase-common:19.2.0] C:\Users\Dell\.gradle\caches\transforms-2\files-2.1\1dc8d1463531e990b2f121f28ad15644\jetified-firebase-common-19.2.0\AndroidManifest.xml:7:5-9:41
MERGED from [com.google.firebase:firebase-common:19.2.0] C:\Users\Dell\.gradle\caches\transforms-2\files-2.1\1dc8d1463531e990b2f121f28ad15644\jetified-firebase-common-19.2.0\AndroidManifest.xml:7:5-9:41
MERGED from [com.google.android.gms:play-services-identity:17.0.0] C:\Users\Dell\.gradle\caches\transforms-2\files-2.1\91b1eaaec5dde3edbb0b57279fc07e62\jetified-play-services-identity-17.0.0\AndroidManifest.xml:20:5-44
MERGED from [com.google.android.gms:play-services-identity:17.0.0] C:\Users\Dell\.gradle\caches\transforms-2\files-2.1\91b1eaaec5dde3edbb0b57279fc07e62\jetified-play-services-identity-17.0.0\AndroidManifest.xml:20:5-44
MERGED from [com.google.android.gms:play-services-maps:17.0.0] C:\Users\Dell\.gradle\caches\transforms-2\files-2.1\33f62faefffd312b864245f962a80757\jetified-play-services-maps-17.0.0\AndroidManifest.xml:20:5-44
MERGED from [com.google.android.gms:play-services-maps:17.0.0] C:\Users\Dell\.gradle\caches\transforms-2\files-2.1\33f62faefffd312b864245f962a80757\jetified-play-services-maps-17.0.0\AndroidManifest.xml:20:5-44
MERGED from [com.google.android.gms:play-services-auth-api-phone:16.0.0] C:\Users\Dell\.gradle\caches\transforms-2\files-2.1\8c3c4107250f4f81e5a03ec3e0fc0362\jetified-play-services-auth-api-phone-16.0.0\AndroidManifest.xml:5:5-44
MERGED from [com.google.android.gms:play-services-auth-api-phone:16.0.0] C:\Users\Dell\.gradle\caches\transforms-2\files-2.1\8c3c4107250f4f81e5a03ec3e0fc0362\jetified-play-services-auth-api-phone-16.0.0\AndroidManifest.xml:5:5-44
MERGED from [com.google.android.gms:play-services-auth-base:16.0.0] C:\Users\Dell\.gradle\caches\transforms-2\files-2.1\914b5f6faf42b77f4ddc5c81e852ad53\jetified-play-services-auth-base-16.0.0\AndroidManifest.xml:5:5-44
MERGED from [com.google.android.gms:play-services-auth-base:16.0.0] C:\Users\Dell\.gradle\caches\transforms-2\files-2.1\914b5f6faf42b77f4ddc5c81e852ad53\jetified-play-services-auth-base-16.0.0\AndroidManifest.xml:5:5-44
MERGED from [com.google.firebase:firebase-iid-interop:17.0.0] C:\Users\Dell\.gradle\caches\transforms-2\files-2.1\c2aefc6065d606167b76ea2051abd40b\jetified-firebase-iid-interop-17.0.0\AndroidManifest.xml:5:5-44
MERGED from [com.google.firebase:firebase-iid-interop:17.0.0] C:\Users\Dell\.gradle\caches\transforms-2\files-2.1\c2aefc6065d606167b76ea2051abd40b\jetified-firebase-iid-interop-17.0.0\AndroidManifest.xml:5:5-44
MERGED from [com.google.android.gms:play-services-base:17.0.0] C:\Users\Dell\.gradle\caches\transforms-2\files-2.1\59be679b2e27841d7fa6496cc0e25cd3\jetified-play-services-base-17.0.0\AndroidManifest.xml:20:5-44
MERGED from [com.google.android.gms:play-services-base:17.0.0] C:\Users\Dell\.gradle\caches\transforms-2\files-2.1\59be679b2e27841d7fa6496cc0e25cd3\jetified-play-services-base-17.0.0\AndroidManifest.xml:20:5-44
MERGED from [com.google.android.gms:play-services-tasks:17.0.0] C:\Users\Dell\.gradle\caches\transforms-2\files-2.1\bc331e7f7c7638428d1149a7e6a02e26\jetified-play-services-tasks-17.0.0\AndroidManifest.xml:5:5-44
MERGED from [com.google.android.gms:play-services-tasks:17.0.0] C:\Users\Dell\.gradle\caches\transforms-2\files-2.1\bc331e7f7c7638428d1149a7e6a02e26\jetified-play-services-tasks-17.0.0\AndroidManifest.xml:5:5-44
MERGED from [com.google.firebase:firebase-measurement-connector:18.0.0] C:\Users\Dell\.gradle\caches\transforms-2\files-2.1\47d536c34d10da383d210bffaff788a6\jetified-firebase-measurement-connector-18.0.0\AndroidManifest.xml:20:5-44
MERGED from [com.google.firebase:firebase-measurement-connector:18.0.0] C:\Users\Dell\.gradle\caches\transforms-2\files-2.1\47d536c34d10da383d210bffaff788a6\jetified-firebase-measurement-connector-18.0.0\AndroidManifest.xml:20:5-44
MERGED from [com.google.android.gms:play-services-stats:17.0.0] C:\Users\Dell\.gradle\caches\transforms-2\files-2.1\326041ba194fdf8e14c6c414f363d072\jetified-play-services-stats-17.0.0\AndroidManifest.xml:5:5-44
MERGED from [com.google.android.gms:play-services-stats:17.0.0] C:\Users\Dell\.gradle\caches\transforms-2\files-2.1\326041ba194fdf8e14c6c414f363d072\jetified-play-services-stats-17.0.0\AndroidManifest.xml:5:5-44
MERGED from [com.google.android.gms:play-services-basement:17.0.0] C:\Users\Dell\.gradle\caches\transforms-2\files-2.1\b14847420912c5c19788d53567725261\jetified-play-services-basement-17.0.0\AndroidManifest.xml:20:5-44
MERGED from [com.google.android.gms:play-services-basement:17.0.0] C:\Users\Dell\.gradle\caches\transforms-2\files-2.1\b14847420912c5c19788d53567725261\jetified-play-services-basement-17.0.0\AndroidManifest.xml:20:5-44
MERGED from [com.google.android.material:material:1.0.0] C:\Users\Dell\.gradle\caches\transforms-2\files-2.1\183bec8115728ca3538533aff9dccffb\material-1.0.0\AndroidManifest.xml:20:5-44
MERGED from [com.google.android.material:material:1.0.0] C:\Users\Dell\.gradle\caches\transforms-2\files-2.1\183bec8115728ca3538533aff9dccffb\material-1.0.0\AndroidManifest.xml:20:5-44
MERGED from [com.facebook.android:facebook-login:4.39.0] C:\Users\Dell\.gradle\caches\transforms-2\files-2.1\8db305602ee99df16520358f7db79b8a\jetified-facebook-login-4.39.0\AndroidManifest.xml:24:5-26:41
MERGED from [com.facebook.android:facebook-login:4.39.0] C:\Users\Dell\.gradle\caches\transforms-2\files-2.1\8db305602ee99df16520358f7db79b8a\jetified-facebook-login-4.39.0\AndroidManifest.xml:24:5-26:41
MERGED from [com.facebook.android:facebook-common:4.39.0] C:\Users\Dell\.gradle\caches\transforms-2\files-2.1\4f1c44486e5cb3081ce7654f27577b09\jetified-facebook-common-4.39.0\AndroidManifest.xml:24:5-26:41
MERGED from [com.facebook.android:facebook-common:4.39.0] C:\Users\Dell\.gradle\caches\transforms-2\files-2.1\4f1c44486e5cb3081ce7654f27577b09\jetified-facebook-common-4.39.0\AndroidManifest.xml:24:5-26:41
MERGED from [androidx.appcompat:appcompat:1.0.0] C:\Users\Dell\.gradle\caches\transforms-2\files-2.1\6cc1c5bf5cfa3fcc0cb4efb65c25f775\appcompat-1.0.0\AndroidManifest.xml:20:5-44
MERGED from [androidx.appcompat:appcompat:1.0.0] C:\Users\Dell\.gradle\caches\transforms-2\files-2.1\6cc1c5bf5cfa3fcc0cb4efb65c25f775\appcompat-1.0.0\AndroidManifest.xml:20:5-44
MERGED from [androidx.legacy:legacy-support-v4:1.0.0] C:\Users\Dell\.gradle\caches\transforms-2\files-2.1\010c51baaca01c7d7c21c311722da1b0\legacy-support-v4-1.0.0\AndroidManifest.xml:20:5-44
MERGED from [androidx.legacy:legacy-support-v4:1.0.0] C:\Users\Dell\.gradle\caches\transforms-2\files-2.1\010c51baaca01c7d7c21c311722da1b0\legacy-support-v4-1.0.0\AndroidManifest.xml:20:5-44
MERGED from [androidx.fragment:fragment:1.1.0] C:\Users\Dell\.gradle\caches\transforms-2\files-2.1\4213f949cf768c8d521f117ca4d3b13b\fragment-1.1.0\AndroidManifest.xml:20:5-22:41
MERGED from [androidx.fragment:fragment:1.1.0] C:\Users\Dell\.gradle\caches\transforms-2\files-2.1\4213f949cf768c8d521f117ca4d3b13b\fragment-1.1.0\AndroidManifest.xml:20:5-22:41
MERGED from [androidx.webkit:webkit:1.0.0] C:\Users\Dell\.gradle\caches\transforms-2\files-2.1\9559f0967463865fc8502ac71746fd5e\webkit-1.0.0\AndroidManifest.xml:20:5-44
MERGED from [androidx.webkit:webkit:1.0.0] C:\Users\Dell\.gradle\caches\transforms-2\files-2.1\9559f0967463865fc8502ac71746fd5e\webkit-1.0.0\AndroidManifest.xml:20:5-44
MERGED from [androidx.recyclerview:recyclerview:1.0.0] C:\Users\Dell\.gradle\caches\transforms-2\files-2.1\9396961f8a4e15ed02af482e29d645d3\recyclerview-1.0.0\AndroidManifest.xml:20:5-44
MERGED from [androidx.recyclerview:recyclerview:1.0.0] C:\Users\Dell\.gradle\caches\transforms-2\files-2.1\9396961f8a4e15ed02af482e29d645d3\recyclerview-1.0.0\AndroidManifest.xml:20:5-44
MERGED from [androidx.vectordrawable:vectordrawable-animated:1.0.0] C:\Users\Dell\.gradle\caches\transforms-2\files-2.1\5e32fef6f554ff3dd6be34a12f44f31a\vectordrawable-animated-1.0.0\AndroidManifest.xml:20:5-44
MERGED from [androidx.vectordrawable:vectordrawable-animated:1.0.0] C:\Users\Dell\.gradle\caches\transforms-2\files-2.1\5e32fef6f554ff3dd6be34a12f44f31a\vectordrawable-animated-1.0.0\AndroidManifest.xml:20:5-44
MERGED from [androidx.browser:browser:1.0.0] C:\Users\Dell\.gradle\caches\transforms-2\files-2.1\a90aace9bd56a69fd7a8ca71fabc2300\browser-1.0.0\AndroidManifest.xml:20:5-44
MERGED from [androidx.browser:browser:1.0.0] C:\Users\Dell\.gradle\caches\transforms-2\files-2.1\a90aace9bd56a69fd7a8ca71fabc2300\browser-1.0.0\AndroidManifest.xml:20:5-44
MERGED from [androidx.legacy:legacy-support-core-ui:1.0.0] C:\Users\Dell\.gradle\caches\transforms-2\files-2.1\ff7cf31b3ede8eb23ce97dc4c22c6e72\legacy-support-core-ui-1.0.0\AndroidManifest.xml:20:5-44
MERGED from [androidx.legacy:legacy-support-core-ui:1.0.0] C:\Users\Dell\.gradle\caches\transforms-2\files-2.1\ff7cf31b3ede8eb23ce97dc4c22c6e72\legacy-support-core-ui-1.0.0\AndroidManifest.xml:20:5-44
MERGED from [androidx.viewpager:viewpager:1.0.0] C:\Users\Dell\.gradle\caches\transforms-2\files-2.1\81b274069356f96ab7d5c2e2e13bf1b2\viewpager-1.0.0\AndroidManifest.xml:20:5-44
MERGED from [androidx.viewpager:viewpager:1.0.0] C:\Users\Dell\.gradle\caches\transforms-2\files-2.1\81b274069356f96ab7d5c2e2e13bf1b2\viewpager-1.0.0\AndroidManifest.xml:20:5-44
MERGED from [com.facebook.android:facebook-core:4.39.0] C:\Users\Dell\.gradle\caches\transforms-2\files-2.1\3904a24fd29f938c9ef9d4a89346c7f0\jetified-facebook-core-4.39.0\AndroidManifest.xml:24:5-26:41
MERGED from [com.facebook.android:facebook-core:4.39.0] C:\Users\Dell\.gradle\caches\transforms-2\files-2.1\3904a24fd29f938c9ef9d4a89346c7f0\jetified-facebook-core-4.39.0\AndroidManifest.xml:24:5-26:41
MERGED from [androidx.legacy:legacy-support-core-utils:1.0.0] C:\Users\Dell\.gradle\caches\transforms-2\files-2.1\5412288b645301744ceb4b7087f1246c\legacy-support-core-utils-1.0.0\AndroidManifest.xml:20:5-44
MERGED from [androidx.legacy:legacy-support-core-utils:1.0.0] C:\Users\Dell\.gradle\caches\transforms-2\files-2.1\5412288b645301744ceb4b7087f1246c\legacy-support-core-utils-1.0.0\AndroidManifest.xml:20:5-44
MERGED from [androidx.loader:loader:1.0.0] C:\Users\Dell\.gradle\caches\transforms-2\files-2.1\03786c33e74738ea953c6a353b51b74c\loader-1.0.0\AndroidManifest.xml:20:5-44
MERGED from [androidx.loader:loader:1.0.0] C:\Users\Dell\.gradle\caches\transforms-2\files-2.1\03786c33e74738ea953c6a353b51b74c\loader-1.0.0\AndroidManifest.xml:20:5-44
MERGED from [androidx.activity:activity:1.0.0] C:\Users\Dell\.gradle\caches\transforms-2\files-2.1\2416e12b636234f059d653301d51c2a8\jetified-activity-1.0.0\AndroidManifest.xml:20:5-22:41
MERGED from [androidx.activity:activity:1.0.0] C:\Users\Dell\.gradle\caches\transforms-2\files-2.1\2416e12b636234f059d653301d51c2a8\jetified-activity-1.0.0\AndroidManifest.xml:20:5-22:41
MERGED from [androidx.coordinatorlayout:coordinatorlayout:1.0.0] C:\Users\Dell\.gradle\caches\transforms-2\files-2.1\332b7cbc40d5e2b37a99eccad0f627dd\coordinatorlayout-1.0.0\AndroidManifest.xml:20:5-44
MERGED from [androidx.coordinatorlayout:coordinatorlayout:1.0.0] C:\Users\Dell\.gradle\caches\transforms-2\files-2.1\332b7cbc40d5e2b37a99eccad0f627dd\coordinatorlayout-1.0.0\AndroidManifest.xml:20:5-44
MERGED from [androidx.drawerlayout:drawerlayout:1.0.0] C:\Users\Dell\.gradle\caches\transforms-2\files-2.1\c5dcc160a9303a073fdbcf2f4e4e9f9f\drawerlayout-1.0.0\AndroidManifest.xml:20:5-44
MERGED from [androidx.drawerlayout:drawerlayout:1.0.0] C:\Users\Dell\.gradle\caches\transforms-2\files-2.1\c5dcc160a9303a073fdbcf2f4e4e9f9f\drawerlayout-1.0.0\AndroidManifest.xml:20:5-44
MERGED from [androidx.slidingpanelayout:slidingpanelayout:1.0.0] C:\Users\Dell\.gradle\caches\transforms-2\files-2.1\b9313d63d55dd005291ed1e250fca8ac\slidingpanelayout-1.0.0\AndroidManifest.xml:20:5-44
MERGED from [androidx.slidingpanelayout:slidingpanelayout:1.0.0] C:\Users\Dell\.gradle\caches\transforms-2\files-2.1\b9313d63d55dd005291ed1e250fca8ac\slidingpanelayout-1.0.0\AndroidManifest.xml:20:5-44
MERGED from [androidx.customview:customview:1.0.0] C:\Users\Dell\.gradle\caches\transforms-2\files-2.1\b4ab0db884e1aff98e46ee040d9db027\customview-1.0.0\AndroidManifest.xml:20:5-44
MERGED from [androidx.customview:customview:1.0.0] C:\Users\Dell\.gradle\caches\transforms-2\files-2.1\b4ab0db884e1aff98e46ee040d9db027\customview-1.0.0\AndroidManifest.xml:20:5-44
MERGED from [androidx.transition:transition:1.0.0] C:\Users\Dell\.gradle\caches\transforms-2\files-2.1\6773596d2f09054d61e917ec58a305a0\transition-1.0.0\AndroidManifest.xml:20:5-44
MERGED from [androidx.transition:transition:1.0.0] C:\Users\Dell\.gradle\caches\transforms-2\files-2.1\6773596d2f09054d61e917ec58a305a0\transition-1.0.0\AndroidManifest.xml:20:5-44
MERGED from [androidx.vectordrawable:vectordrawable:1.0.0] C:\Users\Dell\.gradle\caches\transforms-2\files-2.1\4572da71ae0f4771d51dc0ffb1dc561b\vectordrawable-1.0.0\AndroidManifest.xml:20:5-44
MERGED from [androidx.vectordrawable:vectordrawable:1.0.0] C:\Users\Dell\.gradle\caches\transforms-2\files-2.1\4572da71ae0f4771d51dc0ffb1dc561b\vectordrawable-1.0.0\AndroidManifest.xml:20:5-44
MERGED from [androidx.media:media:1.0.0] C:\Users\Dell\.gradle\caches\transforms-2\files-2.1\0ef81f3aeb6fe6022af4b596284f4e24\media-1.0.0\AndroidManifest.xml:20:5-44
MERGED from [androidx.media:media:1.0.0] C:\Users\Dell\.gradle\caches\transforms-2\files-2.1\0ef81f3aeb6fe6022af4b596284f4e24\media-1.0.0\AndroidManifest.xml:20:5-44
MERGED from [androidx.swiperefreshlayout:swiperefreshlayout:1.0.0] C:\Users\Dell\.gradle\caches\transforms-2\files-2.1\2ce0ff4413c590b63531a9c082210749\swiperefreshlayout-1.0.0\AndroidManifest.xml:20:5-44
MERGED from [androidx.swiperefreshlayout:swiperefreshlayout:1.0.0] C:\Users\Dell\.gradle\caches\transforms-2\files-2.1\2ce0ff4413c590b63531a9c082210749\swiperefreshlayout-1.0.0\AndroidManifest.xml:20:5-44
MERGED from [androidx.asynclayoutinflater:asynclayoutinflater:1.0.0] C:\Users\Dell\.gradle\caches\transforms-2\files-2.1\f94b10e69dd96179b690ba39a100e24a\asynclayoutinflater-1.0.0\AndroidManifest.xml:20:5-44
MERGED from [androidx.asynclayoutinflater:asynclayoutinflater:1.0.0] C:\Users\Dell\.gradle\caches\transforms-2\files-2.1\f94b10e69dd96179b690ba39a100e24a\asynclayoutinflater-1.0.0\AndroidManifest.xml:20:5-44
MERGED from [androidx.core:core:1.1.0] C:\Users\Dell\.gradle\caches\transforms-2\files-2.1\034a0d6f5e1278e388e7c5fca766e350\core-1.1.0\AndroidManifest.xml:20:5-22:41
MERGED from [androidx.core:core:1.1.0] C:\Users\Dell\.gradle\caches\transforms-2\files-2.1\034a0d6f5e1278e388e7c5fca766e350\core-1.1.0\AndroidManifest.xml:20:5-22:41
MERGED from [androidx.lifecycle:lifecycle-runtime:2.2.0] C:\Users\Dell\.gradle\caches\transforms-2\files-2.1\6a5c4f67ede945d1363bfbfa0657b6d5\lifecycle-runtime-2.2.0\AndroidManifest.xml:20:5-22:41
MERGED from [androidx.lifecycle:lifecycle-runtime:2.2.0] C:\Users\Dell\.gradle\caches\transforms-2\files-2.1\6a5c4f67ede945d1363bfbfa0657b6d5\lifecycle-runtime-2.2.0\AndroidManifest.xml:20:5-22:41
MERGED from [androidx.savedstate:savedstate:1.0.0] C:\Users\Dell\.gradle\caches\transforms-2\files-2.1\55f1c554ff2c018a24a9f0f2945c5a0f\jetified-savedstate-1.0.0\AndroidManifest.xml:20:5-22:41
MERGED from [androidx.savedstate:savedstate:1.0.0] C:\Users\Dell\.gradle\caches\transforms-2\files-2.1\55f1c554ff2c018a24a9f0f2945c5a0f\jetified-savedstate-1.0.0\AndroidManifest.xml:20:5-22:41
MERGED from [androidx.lifecycle:lifecycle-livedata:2.0.0] C:\Users\Dell\.gradle\caches\transforms-2\files-2.1\9510ff3dc62e0db2e1cbdde9a471d7d1\lifecycle-livedata-2.0.0\AndroidManifest.xml:20:5-44
MERGED from [androidx.lifecycle:lifecycle-livedata:2.0.0] C:\Users\Dell\.gradle\caches\transforms-2\files-2.1\9510ff3dc62e0db2e1cbdde9a471d7d1\lifecycle-livedata-2.0.0\AndroidManifest.xml:20:5-44
MERGED from [androidx.lifecycle:lifecycle-livedata-core:2.0.0] C:\Users\Dell\.gradle\caches\transforms-2\files-2.1\12ad8c97ddacf629ac0cdd2ef1b34a2c\lifecycle-livedata-core-2.0.0\AndroidManifest.xml:20:5-44
MERGED from [androidx.lifecycle:lifecycle-livedata-core:2.0.0] C:\Users\Dell\.gradle\caches\transforms-2\files-2.1\12ad8c97ddacf629ac0cdd2ef1b34a2c\lifecycle-livedata-core-2.0.0\AndroidManifest.xml:20:5-44
MERGED from [androidx.localbroadcastmanager:localbroadcastmanager:1.0.0] C:\Users\Dell\.gradle\caches\transforms-2\files-2.1\8332f885aec1ac491ba9e522fcaa630d\localbroadcastmanager-1.0.0\AndroidManifest.xml:20:5-44
MERGED from [androidx.localbroadcastmanager:localbroadcastmanager:1.0.0] C:\Users\Dell\.gradle\caches\transforms-2\files-2.1\8332f885aec1ac491ba9e522fcaa630d\localbroadcastmanager-1.0.0\AndroidManifest.xml:20:5-44
MERGED from [androidx.arch.core:core-runtime:2.0.0] C:\Users\Dell\.gradle\caches\transforms-2\files-2.1\8cdaa82a4283de65b0384e1572224cbb\core-runtime-2.0.0\AndroidManifest.xml:20:5-44
MERGED from [androidx.arch.core:core-runtime:2.0.0] C:\Users\Dell\.gradle\caches\transforms-2\files-2.1\8cdaa82a4283de65b0384e1572224cbb\core-runtime-2.0.0\AndroidManifest.xml:20:5-44
MERGED from [androidx.versionedparcelable:versionedparcelable:1.1.0] C:\Users\Dell\.gradle\caches\transforms-2\files-2.1\08a82112e57027dc764f8a57685119ba\versionedparcelable-1.1.0\AndroidManifest.xml:20:5-22:41
MERGED from [androidx.versionedparcelable:versionedparcelable:1.1.0] C:\Users\Dell\.gradle\caches\transforms-2\files-2.1\08a82112e57027dc764f8a57685119ba\versionedparcelable-1.1.0\AndroidManifest.xml:20:5-22:41
MERGED from [androidx.lifecycle:lifecycle-viewmodel:2.1.0] C:\Users\Dell\.gradle\caches\transforms-2\files-2.1\9a0953bf690929d31c2ff4c3139aa834\lifecycle-viewmodel-2.1.0\AndroidManifest.xml:20:5-44
MERGED from [androidx.lifecycle:lifecycle-viewmodel:2.1.0] C:\Users\Dell\.gradle\caches\transforms-2\files-2.1\9a0953bf690929d31c2ff4c3139aa834\lifecycle-viewmodel-2.1.0\AndroidManifest.xml:20:5-44
MERGED from [androidx.cardview:cardview:1.0.0] C:\Users\Dell\.gradle\caches\transforms-2\files-2.1\afce9cae55a453ca00dc3cd43e2be184\cardview-1.0.0\AndroidManifest.xml:20:5-44
MERGED from [androidx.cardview:cardview:1.0.0] C:\Users\Dell\.gradle\caches\transforms-2\files-2.1\afce9cae55a453ca00dc3cd43e2be184\cardview-1.0.0\AndroidManifest.xml:20:5-44
MERGED from [androidx.cursoradapter:cursoradapter:1.0.0] C:\Users\Dell\.gradle\caches\transforms-2\files-2.1\28baab75c8160a126be95115f7119116\cursoradapter-1.0.0\AndroidManifest.xml:20:5-44
MERGED from [androidx.cursoradapter:cursoradapter:1.0.0] C:\Users\Dell\.gradle\caches\transforms-2\files-2.1\28baab75c8160a126be95115f7119116\cursoradapter-1.0.0\AndroidManifest.xml:20:5-44
MERGED from [androidx.documentfile:documentfile:1.0.0] C:\Users\Dell\.gradle\caches\transforms-2\files-2.1\26b4c10975f40558fcd55273ae64feec\documentfile-1.0.0\AndroidManifest.xml:20:5-44
MERGED from [androidx.documentfile:documentfile:1.0.0] C:\Users\Dell\.gradle\caches\transforms-2\files-2.1\26b4c10975f40558fcd55273ae64feec\documentfile-1.0.0\AndroidManifest.xml:20:5-44
MERGED from [androidx.print:print:1.0.0] C:\Users\Dell\.gradle\caches\transforms-2\files-2.1\9bd8b243de2e50f18ff71ff0309d6688\print-1.0.0\AndroidManifest.xml:20:5-44
MERGED from [androidx.print:print:1.0.0] C:\Users\Dell\.gradle\caches\transforms-2\files-2.1\9bd8b243de2e50f18ff71ff0309d6688\print-1.0.0\AndroidManifest.xml:20:5-44
MERGED from [androidx.interpolator:interpolator:1.0.0] C:\Users\Dell\.gradle\caches\transforms-2\files-2.1\7edb7b372b1065d55a9e036564a02ae6\interpolator-1.0.0\AndroidManifest.xml:20:5-44
MERGED from [androidx.interpolator:interpolator:1.0.0] C:\Users\Dell\.gradle\caches\transforms-2\files-2.1\7edb7b372b1065d55a9e036564a02ae6\interpolator-1.0.0\AndroidManifest.xml:20:5-44
INJECTED from D:\Flutter\mkonnekt_kitchen\android\app\src\debug\AndroidManifest.xml
INJECTED from D:\Flutter\mkonnekt_kitchen\android\app\src\debug\AndroidManifest.xml
	android:targetSdkVersion
		INJECTED from D:\Flutter\mkonnekt_kitchen\android\app\src\main\AndroidManifest.xml
		INJECTED from D:\Flutter\mkonnekt_kitchen\android\app\src\debug\AndroidManifest.xml
	android:minSdkVersion
		INJECTED from D:\Flutter\mkonnekt_kitchen\android\app\src\main\AndroidManifest.xml
		INJECTED from D:\Flutter\mkonnekt_kitchen\android\app\src\debug\AndroidManifest.xml
uses-permission#android.permission.INTERNET
ADDED from D:\Flutter\mkonnekt_kitchen\android\app\src\debug\AndroidManifest.xml:6:5-66
MERGED from [:google_sign_in] D:\Flutter\mkonnekt_kitchen\build\google_sign_in\intermediates\library_manifest\debug\AndroidManifest.xml:7:5-67
MERGED from [:google_sign_in] D:\Flutter\mkonnekt_kitchen\build\google_sign_in\intermediates\library_manifest\debug\AndroidManifest.xml:7:5-67
MERGED from [com.google.firebase:firebase-iid:20.0.1] C:\Users\Dell\.gradle\caches\transforms-2\files-2.1\1fe8d62c45efdf0330e5e2c63d504a6f\jetified-firebase-iid-20.0.1\AndroidManifest.xml:23:5-67
MERGED from [com.google.firebase:firebase-iid:20.0.1] C:\Users\Dell\.gradle\caches\transforms-2\files-2.1\1fe8d62c45efdf0330e5e2c63d504a6f\jetified-firebase-iid-20.0.1\AndroidManifest.xml:23:5-67
MERGED from [com.google.android.gms:play-services-maps:17.0.0] C:\Users\Dell\.gradle\caches\transforms-2\files-2.1\33f62faefffd312b864245f962a80757\jetified-play-services-maps-17.0.0\AndroidManifest.xml:24:5-67
MERGED from [com.google.android.gms:play-services-maps:17.0.0] C:\Users\Dell\.gradle\caches\transforms-2\files-2.1\33f62faefffd312b864245f962a80757\jetified-play-services-maps-17.0.0\AndroidManifest.xml:24:5-67
	android:name
		ADDED from D:\Flutter\mkonnekt_kitchen\android\app\src\debug\AndroidManifest.xml:6:22-64
service#io.flutter.plugins.firebasemessaging.FlutterFirebaseMessagingService
ADDED from [:firebase_messaging] D:\Flutter\mkonnekt_kitchen\build\firebase_messaging\intermediates\library_manifest\debug\AndroidManifest.xml:8:9-12:19
	android:name
		ADDED from [:firebase_messaging] D:\Flutter\mkonnekt_kitchen\build\firebase_messaging\intermediates\library_manifest\debug\AndroidManifest.xml:8:18-101
intent-filter#action:name:com.google.firebase.MESSAGING_EVENT
ADDED from [:firebase_messaging] D:\Flutter\mkonnekt_kitchen\build\firebase_messaging\intermediates\library_manifest\debug\AndroidManifest.xml:9:13-11:29
action#com.google.firebase.MESSAGING_EVENT
ADDED from [:firebase_messaging] D:\Flutter\mkonnekt_kitchen\build\firebase_messaging\intermediates\library_manifest\debug\AndroidManifest.xml:10:17-78
	android:name
		ADDED from [:firebase_messaging] D:\Flutter\mkonnekt_kitchen\build\firebase_messaging\intermediates\library_manifest\debug\AndroidManifest.xml:10:25-75
service#com.google.firebase.components.ComponentDiscoveryService
ADDED from [:firebase_messaging] D:\Flutter\mkonnekt_kitchen\build\firebase_messaging\intermediates\library_manifest\debug\AndroidManifest.xml:13:9-17:19
MERGED from [com.google.firebase:firebase-iid:20.0.1] C:\Users\Dell\.gradle\caches\transforms-2\files-2.1\1fe8d62c45efdf0330e5e2c63d504a6f\jetified-firebase-iid-20.0.1\AndroidManifest.xml:29:9-35:19
MERGED from [com.google.firebase:firebase-iid:20.0.1] C:\Users\Dell\.gradle\caches\transforms-2\files-2.1\1fe8d62c45efdf0330e5e2c63d504a6f\jetified-firebase-iid-20.0.1\AndroidManifest.xml:29:9-35:19
MERGED from [com.google.firebase:firebase-common:19.2.0] C:\Users\Dell\.gradle\caches\transforms-2\files-2.1\1dc8d1463531e990b2f121f28ad15644\jetified-firebase-common-19.2.0\AndroidManifest.xml:13:9-17:35
MERGED from [com.google.firebase:firebase-common:19.2.0] C:\Users\Dell\.gradle\caches\transforms-2\files-2.1\1dc8d1463531e990b2f121f28ad15644\jetified-firebase-common-19.2.0\AndroidManifest.xml:13:9-17:35
	android:exported
		ADDED from [com.google.firebase:firebase-iid:20.0.1] C:\Users\Dell\.gradle\caches\transforms-2\files-2.1\1fe8d62c45efdf0330e5e2c63d504a6f\jetified-firebase-iid-20.0.1\AndroidManifest.xml:31:13-37
	tools:targetApi
		ADDED from [com.google.firebase:firebase-common:19.2.0] C:\Users\Dell\.gradle\caches\transforms-2\files-2.1\1dc8d1463531e990b2f121f28ad15644\jetified-firebase-common-19.2.0\AndroidManifest.xml:17:13-32
	android:directBootAware
		ADDED from [com.google.firebase:firebase-common:19.2.0] C:\Users\Dell\.gradle\caches\transforms-2\files-2.1\1dc8d1463531e990b2f121f28ad15644\jetified-firebase-common-19.2.0\AndroidManifest.xml:15:13-43
	android:name
		ADDED from [:firebase_messaging] D:\Flutter\mkonnekt_kitchen\build\firebase_messaging\intermediates\library_manifest\debug\AndroidManifest.xml:13:18-89
meta-data#com.google.firebase.components:io.flutter.plugins.firebasemessaging.FlutterFirebaseAppRegistrar
ADDED from [:firebase_messaging] D:\Flutter\mkonnekt_kitchen\build\firebase_messaging\intermediates\library_manifest\debug\AndroidManifest.xml:14:13-16:85
	android:value
		ADDED from [:firebase_messaging] D:\Flutter\mkonnekt_kitchen\build\firebase_messaging\intermediates\library_manifest\debug\AndroidManifest.xml:16:17-82
	android:name
		ADDED from [:firebase_messaging] D:\Flutter\mkonnekt_kitchen\build\firebase_messaging\intermediates\library_manifest\debug\AndroidManifest.xml:15:17-127
meta-data#com.google.android.gms.wallet.api.enabled
ADDED from [:stripe_payment] D:\Flutter\mkonnekt_kitchen\build\stripe_payment\intermediates\library_manifest\debug\AndroidManifest.xml:12:9-14:36
	android:value
		ADDED from [:stripe_payment] D:\Flutter\mkonnekt_kitchen\build\stripe_payment\intermediates\library_manifest\debug\AndroidManifest.xml:14:13-33
	android:name
		ADDED from [:stripe_payment] D:\Flutter\mkonnekt_kitchen\build\stripe_payment\intermediates\library_manifest\debug\AndroidManifest.xml:13:13-69
activity#com.gettipsi.stripe.OpenBrowserActivity
ADDED from [:stripe_payment] D:\Flutter\mkonnekt_kitchen\build\stripe_payment\intermediates\library_manifest\debug\AndroidManifest.xml:16:9-20:75
	android:launchMode
		ADDED from [:stripe_payment] D:\Flutter\mkonnekt_kitchen\build\stripe_payment\intermediates\library_manifest\debug\AndroidManifest.xml:19:13-44
	android:exported
		ADDED from [:stripe_payment] D:\Flutter\mkonnekt_kitchen\build\stripe_payment\intermediates\library_manifest\debug\AndroidManifest.xml:18:13-37
	android:theme
		ADDED from [:stripe_payment] D:\Flutter\mkonnekt_kitchen\build\stripe_payment\intermediates\library_manifest\debug\AndroidManifest.xml:20:13-72
	android:name
		ADDED from [:stripe_payment] D:\Flutter\mkonnekt_kitchen\build\stripe_payment\intermediates\library_manifest\debug\AndroidManifest.xml:17:13-67
activity#com.gettipsi.stripe.RedirectUriReceiver
ADDED from [:stripe_payment] D:\Flutter\mkonnekt_kitchen\build\stripe_payment\intermediates\library_manifest\debug\AndroidManifest.xml:21:9-34:20
	android:launchMode
		ADDED from [:stripe_payment] D:\Flutter\mkonnekt_kitchen\build\stripe_payment\intermediates\library_manifest\debug\AndroidManifest.xml:24:13-44
	android:exported
		ADDED from [:stripe_payment] D:\Flutter\mkonnekt_kitchen\build\stripe_payment\intermediates\library_manifest\debug\AndroidManifest.xml:23:13-36
	android:theme
		ADDED from [:stripe_payment] D:\Flutter\mkonnekt_kitchen\build\stripe_payment\intermediates\library_manifest\debug\AndroidManifest.xml:25:13-83
	android:name
		ADDED from [:stripe_payment] D:\Flutter\mkonnekt_kitchen\build\stripe_payment\intermediates\library_manifest\debug\AndroidManifest.xml:22:13-67
intent-filter#action:name:android.intent.action.VIEW+category:name:android.intent.category.BROWSABLE+category:name:android.intent.category.DEFAULT+data:scheme:example
ADDED from [:stripe_payment] D:\Flutter\mkonnekt_kitchen\build\stripe_payment\intermediates\library_manifest\debug\AndroidManifest.xml:26:13-33:29
activity#io.flutter.plugins.urllauncher.WebViewActivity
ADDED from [:url_launcher] D:\Flutter\mkonnekt_kitchen\build\url_launcher\intermediates\library_manifest\debug\AndroidManifest.xml:8:9-11:74
	android:exported
		ADDED from [:url_launcher] D:\Flutter\mkonnekt_kitchen\build\url_launcher\intermediates\library_manifest\debug\AndroidManifest.xml:10:13-37
	android:theme
		ADDED from [:url_launcher] D:\Flutter\mkonnekt_kitchen\build\url_launcher\intermediates\library_manifest\debug\AndroidManifest.xml:11:13-71
	android:name
		ADDED from [:url_launcher] D:\Flutter\mkonnekt_kitchen\build\url_launcher\intermediates\library_manifest\debug\AndroidManifest.xml:9:13-74
activity#com.stripe.android.view.AddPaymentMethodActivity
ADDED from [com.stripe:stripe-android:10.4.6] C:\Users\Dell\.gradle\caches\transforms-2\files-2.1\f8238e894c4fdb3dcb235954864b57ee\jetified-stripe-android-10.4.6\AndroidManifest.xml:12:9-14:57
	android:theme
		ADDED from [com.stripe:stripe-android:10.4.6] C:\Users\Dell\.gradle\caches\transforms-2\files-2.1\f8238e894c4fdb3dcb235954864b57ee\jetified-stripe-android-10.4.6\AndroidManifest.xml:14:13-54
	android:name
		ADDED from [com.stripe:stripe-android:10.4.6] C:\Users\Dell\.gradle\caches\transforms-2\files-2.1\f8238e894c4fdb3dcb235954864b57ee\jetified-stripe-android-10.4.6\AndroidManifest.xml:13:13-76
activity#com.stripe.android.view.PaymentMethodsActivity
ADDED from [com.stripe:stripe-android:10.4.6] C:\Users\Dell\.gradle\caches\transforms-2\files-2.1\f8238e894c4fdb3dcb235954864b57ee\jetified-stripe-android-10.4.6\AndroidManifest.xml:15:9-17:57
	android:theme
		ADDED from [com.stripe:stripe-android:10.4.6] C:\Users\Dell\.gradle\caches\transforms-2\files-2.1\f8238e894c4fdb3dcb235954864b57ee\jetified-stripe-android-10.4.6\AndroidManifest.xml:17:13-54
	android:name
		ADDED from [com.stripe:stripe-android:10.4.6] C:\Users\Dell\.gradle\caches\transforms-2\files-2.1\f8238e894c4fdb3dcb235954864b57ee\jetified-stripe-android-10.4.6\AndroidManifest.xml:16:13-74
activity#com.stripe.android.view.PaymentFlowActivity
ADDED from [com.stripe:stripe-android:10.4.6] C:\Users\Dell\.gradle\caches\transforms-2\files-2.1\f8238e894c4fdb3dcb235954864b57ee\jetified-stripe-android-10.4.6\AndroidManifest.xml:18:9-20:57
	android:theme
		ADDED from [com.stripe:stripe-android:10.4.6] C:\Users\Dell\.gradle\caches\transforms-2\files-2.1\f8238e894c4fdb3dcb235954864b57ee\jetified-stripe-android-10.4.6\AndroidManifest.xml:20:13-54
	android:name
		ADDED from [com.stripe:stripe-android:10.4.6] C:\Users\Dell\.gradle\caches\transforms-2\files-2.1\f8238e894c4fdb3dcb235954864b57ee\jetified-stripe-android-10.4.6\AndroidManifest.xml:19:13-71
activity#com.stripe.android.view.PaymentAuthWebViewActivity
ADDED from [com.stripe:stripe-android:10.4.6] C:\Users\Dell\.gradle\caches\transforms-2\files-2.1\f8238e894c4fdb3dcb235954864b57ee\jetified-stripe-android-10.4.6\AndroidManifest.xml:21:9-23:57
	android:theme
		ADDED from [com.stripe:stripe-android:10.4.6] C:\Users\Dell\.gradle\caches\transforms-2\files-2.1\f8238e894c4fdb3dcb235954864b57ee\jetified-stripe-android-10.4.6\AndroidManifest.xml:23:13-54
	android:name
		ADDED from [com.stripe:stripe-android:10.4.6] C:\Users\Dell\.gradle\caches\transforms-2\files-2.1\f8238e894c4fdb3dcb235954864b57ee\jetified-stripe-android-10.4.6\AndroidManifest.xml:22:13-78
activity#com.stripe.android.view.PaymentRelayActivity
ADDED from [com.stripe:stripe-android:10.4.6] C:\Users\Dell\.gradle\caches\transforms-2\files-2.1\f8238e894c4fdb3dcb235954864b57ee\jetified-stripe-android-10.4.6\AndroidManifest.xml:24:9-26:57
	android:theme
		ADDED from [com.stripe:stripe-android:10.4.6] C:\Users\Dell\.gradle\caches\transforms-2\files-2.1\f8238e894c4fdb3dcb235954864b57ee\jetified-stripe-android-10.4.6\AndroidManifest.xml:26:13-54
	android:name
		ADDED from [com.stripe:stripe-android:10.4.6] C:\Users\Dell\.gradle\caches\transforms-2\files-2.1\f8238e894c4fdb3dcb235954864b57ee\jetified-stripe-android-10.4.6\AndroidManifest.xml:25:13-72
activity#com.stripe.android.stripe3ds2.views.ChallengeActivity
ADDED from [com.stripe:stripe-3ds2-android:1.2.2] C:\Users\Dell\.gradle\caches\transforms-2\files-2.1\3d5ac9062bdc253556a103c24bdc507e\jetified-stripe-3ds2-android-1.2.2\AndroidManifest.xml:12:9-14:54
	android:theme
		ADDED from [com.stripe:stripe-3ds2-android:1.2.2] C:\Users\Dell\.gradle\caches\transforms-2\files-2.1\3d5ac9062bdc253556a103c24bdc507e\jetified-stripe-3ds2-android-1.2.2\AndroidManifest.xml:14:13-51
	android:name
		ADDED from [com.stripe:stripe-3ds2-android:1.2.2] C:\Users\Dell\.gradle\caches\transforms-2\files-2.1\3d5ac9062bdc253556a103c24bdc507e\jetified-stripe-3ds2-android-1.2.2\AndroidManifest.xml:13:13-81
activity#com.stripe.android.stripe3ds2.views.ChallengeProgressDialogActivity
ADDED from [com.stripe:stripe-3ds2-android:1.2.2] C:\Users\Dell\.gradle\caches\transforms-2\files-2.1\3d5ac9062bdc253556a103c24bdc507e\jetified-stripe-3ds2-android-1.2.2\AndroidManifest.xml:15:9-17:54
	android:theme
		ADDED from [com.stripe:stripe-3ds2-android:1.2.2] C:\Users\Dell\.gradle\caches\transforms-2\files-2.1\3d5ac9062bdc253556a103c24bdc507e\jetified-stripe-3ds2-android-1.2.2\AndroidManifest.xml:17:13-51
	android:name
		ADDED from [com.stripe:stripe-3ds2-android:1.2.2] C:\Users\Dell\.gradle\caches\transforms-2\files-2.1\3d5ac9062bdc253556a103c24bdc507e\jetified-stripe-3ds2-android-1.2.2\AndroidManifest.xml:16:13-95
service#com.google.firebase.messaging.FirebaseMessagingService
ADDED from [com.google.firebase:firebase-messaging:20.0.1] C:\Users\Dell\.gradle\caches\transforms-2\files-2.1\81ff080171b921d868afcedf0ca450c4\jetified-firebase-messaging-20.0.1\AndroidManifest.xml:28:9-34:19
	android:exported
		ADDED from [com.google.firebase:firebase-messaging:20.0.1] C:\Users\Dell\.gradle\caches\transforms-2\files-2.1\81ff080171b921d868afcedf0ca450c4\jetified-firebase-messaging-20.0.1\AndroidManifest.xml:30:13-37
	android:name
		ADDED from [com.google.firebase:firebase-messaging:20.0.1] C:\Users\Dell\.gradle\caches\transforms-2\files-2.1\81ff080171b921d868afcedf0ca450c4\jetified-firebase-messaging-20.0.1\AndroidManifest.xml:29:13-82
activity#com.google.android.gms.auth.api.signin.internal.SignInHubActivity
ADDED from [com.google.android.gms:play-services-auth:16.0.1] C:\Users\Dell\.gradle\caches\transforms-2\files-2.1\d0b0a2e65d268546cefecfad8e618a2f\jetified-play-services-auth-16.0.1\AndroidManifest.xml:23:9-27:75
	android:excludeFromRecents
		ADDED from [com.google.android.gms:play-services-auth:16.0.1] C:\Users\Dell\.gradle\caches\transforms-2\files-2.1\d0b0a2e65d268546cefecfad8e618a2f\jetified-play-services-auth-16.0.1\AndroidManifest.xml:25:13-46
	android:exported
		ADDED from [com.google.android.gms:play-services-auth:16.0.1] C:\Users\Dell\.gradle\caches\transforms-2\files-2.1\d0b0a2e65d268546cefecfad8e618a2f\jetified-play-services-auth-16.0.1\AndroidManifest.xml:26:13-37
	android:theme
		ADDED from [com.google.android.gms:play-services-auth:16.0.1] C:\Users\Dell\.gradle\caches\transforms-2\files-2.1\d0b0a2e65d268546cefecfad8e618a2f\jetified-play-services-auth-16.0.1\AndroidManifest.xml:27:13-72
	android:name
		ADDED from [com.google.android.gms:play-services-auth:16.0.1] C:\Users\Dell\.gradle\caches\transforms-2\files-2.1\d0b0a2e65d268546cefecfad8e618a2f\jetified-play-services-auth-16.0.1\AndroidManifest.xml:24:13-93
service#com.google.android.gms.auth.api.signin.RevocationBoundService
ADDED from [com.google.android.gms:play-services-auth:16.0.1] C:\Users\Dell\.gradle\caches\transforms-2\files-2.1\d0b0a2e65d268546cefecfad8e618a2f\jetified-play-services-auth-16.0.1\AndroidManifest.xml:33:9-36:110
	android:exported
		ADDED from [com.google.android.gms:play-services-auth:16.0.1] C:\Users\Dell\.gradle\caches\transforms-2\files-2.1\d0b0a2e65d268546cefecfad8e618a2f\jetified-play-services-auth-16.0.1\AndroidManifest.xml:35:13-36
	android:permission
		ADDED from [com.google.android.gms:play-services-auth:16.0.1] C:\Users\Dell\.gradle\caches\transforms-2\files-2.1\d0b0a2e65d268546cefecfad8e618a2f\jetified-play-services-auth-16.0.1\AndroidManifest.xml:36:13-107
	android:name
		ADDED from [com.google.android.gms:play-services-auth:16.0.1] C:\Users\Dell\.gradle\caches\transforms-2\files-2.1\d0b0a2e65d268546cefecfad8e618a2f\jetified-play-services-auth-16.0.1\AndroidManifest.xml:34:13-89
uses-permission#android.permission.ACCESS_NETWORK_STATE
ADDED from [com.google.firebase:firebase-iid:20.0.1] C:\Users\Dell\.gradle\caches\transforms-2\files-2.1\1fe8d62c45efdf0330e5e2c63d504a6f\jetified-firebase-iid-20.0.1\AndroidManifest.xml:22:5-79
MERGED from [com.google.android.gms:play-services-maps:17.0.0] C:\Users\Dell\.gradle\caches\transforms-2\files-2.1\33f62faefffd312b864245f962a80757\jetified-play-services-maps-17.0.0\AndroidManifest.xml:23:5-79
MERGED from [com.google.android.gms:play-services-maps:17.0.0] C:\Users\Dell\.gradle\caches\transforms-2\files-2.1\33f62faefffd312b864245f962a80757\jetified-play-services-maps-17.0.0\AndroidManifest.xml:23:5-79
	android:name
		ADDED from [com.google.firebase:firebase-iid:20.0.1] C:\Users\Dell\.gradle\caches\transforms-2\files-2.1\1fe8d62c45efdf0330e5e2c63d504a6f\jetified-firebase-iid-20.0.1\AndroidManifest.xml:22:22-76
uses-permission#android.permission.WAKE_LOCK
ADDED from [com.google.firebase:firebase-iid:20.0.1] C:\Users\Dell\.gradle\caches\transforms-2\files-2.1\1fe8d62c45efdf0330e5e2c63d504a6f\jetified-firebase-iid-20.0.1\AndroidManifest.xml:24:5-68
	android:name
		ADDED from [com.google.firebase:firebase-iid:20.0.1] C:\Users\Dell\.gradle\caches\transforms-2\files-2.1\1fe8d62c45efdf0330e5e2c63d504a6f\jetified-firebase-iid-20.0.1\AndroidManifest.xml:24:22-65
uses-permission#com.google.android.c2dm.permission.RECEIVE
ADDED from [com.google.firebase:firebase-iid:20.0.1] C:\Users\Dell\.gradle\caches\transforms-2\files-2.1\1fe8d62c45efdf0330e5e2c63d504a6f\jetified-firebase-iid-20.0.1\AndroidManifest.xml:26:5-82
	android:name
		ADDED from [com.google.firebase:firebase-iid:20.0.1] C:\Users\Dell\.gradle\caches\transforms-2\files-2.1\1fe8d62c45efdf0330e5e2c63d504a6f\jetified-firebase-iid-20.0.1\AndroidManifest.xml:26:22-79
meta-data#com.google.firebase.components:com.google.firebase.iid.Registrar
ADDED from [com.google.firebase:firebase-iid:20.0.1] C:\Users\Dell\.gradle\caches\transforms-2\files-2.1\1fe8d62c45efdf0330e5e2c63d504a6f\jetified-firebase-iid-20.0.1\AndroidManifest.xml:32:13-34:85
	android:value
		ADDED from [com.google.firebase:firebase-iid:20.0.1] C:\Users\Dell\.gradle\caches\transforms-2\files-2.1\1fe8d62c45efdf0330e5e2c63d504a6f\jetified-firebase-iid-20.0.1\AndroidManifest.xml:34:17-82
	android:name
		ADDED from [com.google.firebase:firebase-iid:20.0.1] C:\Users\Dell\.gradle\caches\transforms-2\files-2.1\1fe8d62c45efdf0330e5e2c63d504a6f\jetified-firebase-iid-20.0.1\AndroidManifest.xml:33:17-96
receiver#com.google.firebase.iid.FirebaseInstanceIdReceiver
ADDED from [com.google.firebase:firebase-iid:20.0.1] C:\Users\Dell\.gradle\caches\transforms-2\files-2.1\1fe8d62c45efdf0330e5e2c63d504a6f\jetified-firebase-iid-20.0.1\AndroidManifest.xml:37:9-44:20
	android:exported
		ADDED from [com.google.firebase:firebase-iid:20.0.1] C:\Users\Dell\.gradle\caches\transforms-2\files-2.1\1fe8d62c45efdf0330e5e2c63d504a6f\jetified-firebase-iid-20.0.1\AndroidManifest.xml:39:13-36
	android:permission
		ADDED from [com.google.firebase:firebase-iid:20.0.1] C:\Users\Dell\.gradle\caches\transforms-2\files-2.1\1fe8d62c45efdf0330e5e2c63d504a6f\jetified-firebase-iid-20.0.1\AndroidManifest.xml:40:13-73
	android:name
		ADDED from [com.google.firebase:firebase-iid:20.0.1] C:\Users\Dell\.gradle\caches\transforms-2\files-2.1\1fe8d62c45efdf0330e5e2c63d504a6f\jetified-firebase-iid-20.0.1\AndroidManifest.xml:38:13-78
intent-filter#action:name:com.google.android.c2dm.intent.RECEIVE
ADDED from [com.google.firebase:firebase-iid:20.0.1] C:\Users\Dell\.gradle\caches\transforms-2\files-2.1\1fe8d62c45efdf0330e5e2c63d504a6f\jetified-firebase-iid-20.0.1\AndroidManifest.xml:41:13-43:29
action#com.google.android.c2dm.intent.RECEIVE
ADDED from [com.google.firebase:firebase-iid:20.0.1] C:\Users\Dell\.gradle\caches\transforms-2\files-2.1\1fe8d62c45efdf0330e5e2c63d504a6f\jetified-firebase-iid-20.0.1\AndroidManifest.xml:42:17-81
	android:name
		ADDED from [com.google.firebase:firebase-iid:20.0.1] C:\Users\Dell\.gradle\caches\transforms-2\files-2.1\1fe8d62c45efdf0330e5e2c63d504a6f\jetified-firebase-iid-20.0.1\AndroidManifest.xml:42:25-78
provider#com.google.firebase.provider.FirebaseInitProvider
ADDED from [com.google.firebase:firebase-common:19.2.0] C:\Users\Dell\.gradle\caches\transforms-2\files-2.1\1dc8d1463531e990b2f121f28ad15644\jetified-firebase-common-19.2.0\AndroidManifest.xml:19:9-23:39
	android:authorities
		ADDED from [com.google.firebase:firebase-common:19.2.0] C:\Users\Dell\.gradle\caches\transforms-2\files-2.1\1dc8d1463531e990b2f121f28ad15644\jetified-firebase-common-19.2.0\AndroidManifest.xml:21:13-72
	android:exported
		ADDED from [com.google.firebase:firebase-common:19.2.0] C:\Users\Dell\.gradle\caches\transforms-2\files-2.1\1dc8d1463531e990b2f121f28ad15644\jetified-firebase-common-19.2.0\AndroidManifest.xml:22:13-37
	android:initOrder
		ADDED from [com.google.firebase:firebase-common:19.2.0] C:\Users\Dell\.gradle\caches\transforms-2\files-2.1\1dc8d1463531e990b2f121f28ad15644\jetified-firebase-common-19.2.0\AndroidManifest.xml:23:13-36
	android:name
		ADDED from [com.google.firebase:firebase-common:19.2.0] C:\Users\Dell\.gradle\caches\transforms-2\files-2.1\1dc8d1463531e990b2f121f28ad15644\jetified-firebase-common-19.2.0\AndroidManifest.xml:20:13-77
uses-feature#0x00020000
ADDED from [com.google.android.gms:play-services-maps:17.0.0] C:\Users\Dell\.gradle\caches\transforms-2\files-2.1\33f62faefffd312b864245f962a80757\jetified-play-services-maps-17.0.0\AndroidManifest.xml:26:5-28:35
	android:glEsVersion
		ADDED from [com.google.android.gms:play-services-maps:17.0.0] C:\Users\Dell\.gradle\caches\transforms-2\files-2.1\33f62faefffd312b864245f962a80757\jetified-play-services-maps-17.0.0\AndroidManifest.xml:27:9-41
	android:required
		ADDED from [com.google.android.gms:play-services-maps:17.0.0] C:\Users\Dell\.gradle\caches\transforms-2\files-2.1\33f62faefffd312b864245f962a80757\jetified-play-services-maps-17.0.0\AndroidManifest.xml:28:9-32
uses-library#org.apache.http.legacy
ADDED from [com.google.android.gms:play-services-maps:17.0.0] C:\Users\Dell\.gradle\caches\transforms-2\files-2.1\33f62faefffd312b864245f962a80757\jetified-play-services-maps-17.0.0\AndroidManifest.xml:33:9-35:40
	android:required
		ADDED from [com.google.android.gms:play-services-maps:17.0.0] C:\Users\Dell\.gradle\caches\transforms-2\files-2.1\33f62faefffd312b864245f962a80757\jetified-play-services-maps-17.0.0\AndroidManifest.xml:35:13-37
	android:name
		ADDED from [com.google.android.gms:play-services-maps:17.0.0] C:\Users\Dell\.gradle\caches\transforms-2\files-2.1\33f62faefffd312b864245f962a80757\jetified-play-services-maps-17.0.0\AndroidManifest.xml:34:13-50
activity#com.google.android.gms.common.api.GoogleApiActivity
ADDED from [com.google.android.gms:play-services-base:17.0.0] C:\Users\Dell\.gradle\caches\transforms-2\files-2.1\59be679b2e27841d7fa6496cc0e25cd3\jetified-play-services-base-17.0.0\AndroidManifest.xml:23:9-26:75
	android:exported
		ADDED from [com.google.android.gms:play-services-base:17.0.0] C:\Users\Dell\.gradle\caches\transforms-2\files-2.1\59be679b2e27841d7fa6496cc0e25cd3\jetified-play-services-base-17.0.0\AndroidManifest.xml:25:13-37
	android:theme
		ADDED from [com.google.android.gms:play-services-base:17.0.0] C:\Users\Dell\.gradle\caches\transforms-2\files-2.1\59be679b2e27841d7fa6496cc0e25cd3\jetified-play-services-base-17.0.0\AndroidManifest.xml:26:13-72
	android:name
		ADDED from [com.google.android.gms:play-services-base:17.0.0] C:\Users\Dell\.gradle\caches\transforms-2\files-2.1\59be679b2e27841d7fa6496cc0e25cd3\jetified-play-services-base-17.0.0\AndroidManifest.xml:24:13-79
meta-data#com.google.android.gms.version
ADDED from [com.google.android.gms:play-services-basement:17.0.0] C:\Users\Dell\.gradle\caches\transforms-2\files-2.1\b14847420912c5c19788d53567725261\jetified-play-services-basement-17.0.0\AndroidManifest.xml:23:9-25:69
	android:value
		ADDED from [com.google.android.gms:play-services-basement:17.0.0] C:\Users\Dell\.gradle\caches\transforms-2\files-2.1\b14847420912c5c19788d53567725261\jetified-play-services-basement-17.0.0\AndroidManifest.xml:25:13-66
	android:name
		ADDED from [com.google.android.gms:play-services-basement:17.0.0] C:\Users\Dell\.gradle\caches\transforms-2\files-2.1\b14847420912c5c19788d53567725261\jetified-play-services-basement-17.0.0\AndroidManifest.xml:24:13-58
activity#com.facebook.CustomTabMainActivity
ADDED from [com.facebook.android:facebook-common:4.39.0] C:\Users\Dell\.gradle\caches\transforms-2\files-2.1\4f1c44486e5cb3081ce7654f27577b09\jetified-facebook-common-4.39.0\AndroidManifest.xml:33:9-71
	android:name
		ADDED from [com.facebook.android:facebook-common:4.39.0] C:\Users\Dell\.gradle\caches\transforms-2\files-2.1\4f1c44486e5cb3081ce7654f27577b09\jetified-facebook-common-4.39.0\AndroidManifest.xml:33:19-68
provider#com.facebook.internal.FacebookInitProvider
ADDED from [com.facebook.android:facebook-core:4.39.0] C:\Users\Dell\.gradle\caches\transforms-2\files-2.1\3904a24fd29f938c9ef9d4a89346c7f0\jetified-facebook-core-4.39.0\AndroidManifest.xml:39:9-42:40
	android:authorities
		ADDED from [com.facebook.android:facebook-core:4.39.0] C:\Users\Dell\.gradle\caches\transforms-2\files-2.1\3904a24fd29f938c9ef9d4a89346c7f0\jetified-facebook-core-4.39.0\AndroidManifest.xml:41:13-72
	android:exported
		ADDED from [com.facebook.android:facebook-core:4.39.0] C:\Users\Dell\.gradle\caches\transforms-2\files-2.1\3904a24fd29f938c9ef9d4a89346c7f0\jetified-facebook-core-4.39.0\AndroidManifest.xml:42:13-37
	android:name
		ADDED from [com.facebook.android:facebook-core:4.39.0] C:\Users\Dell\.gradle\caches\transforms-2\files-2.1\3904a24fd29f938c9ef9d4a89346c7f0\jetified-facebook-core-4.39.0\AndroidManifest.xml:40:13-70
receiver#com.facebook.CurrentAccessTokenExpirationBroadcastReceiver
ADDED from [com.facebook.android:facebook-core:4.39.0] C:\Users\Dell\.gradle\caches\transforms-2\files-2.1\3904a24fd29f938c9ef9d4a89346c7f0\jetified-facebook-core-4.39.0\AndroidManifest.xml:44:9-50:20
	android:exported
		ADDED from [com.facebook.android:facebook-core:4.39.0] C:\Users\Dell\.gradle\caches\transforms-2\files-2.1\3904a24fd29f938c9ef9d4a89346c7f0\jetified-facebook-core-4.39.0\AndroidManifest.xml:46:13-37
	android:name
		ADDED from [com.facebook.android:facebook-core:4.39.0] C:\Users\Dell\.gradle\caches\transforms-2\files-2.1\3904a24fd29f938c9ef9d4a89346c7f0\jetified-facebook-core-4.39.0\AndroidManifest.xml:45:13-86
intent-filter#action:name:com.facebook.sdk.ACTION_CURRENT_ACCESS_TOKEN_CHANGED
ADDED from [com.facebook.android:facebook-core:4.39.0] C:\Users\Dell\.gradle\caches\transforms-2\files-2.1\3904a24fd29f938c9ef9d4a89346c7f0\jetified-facebook-core-4.39.0\AndroidManifest.xml:47:13-49:29
action#com.facebook.sdk.ACTION_CURRENT_ACCESS_TOKEN_CHANGED
ADDED from [com.facebook.android:facebook-core:4.39.0] C:\Users\Dell\.gradle\caches\transforms-2\files-2.1\3904a24fd29f938c9ef9d4a89346c7f0\jetified-facebook-core-4.39.0\AndroidManifest.xml:48:17-95
	android:name
		ADDED from [com.facebook.android:facebook-core:4.39.0] C:\Users\Dell\.gradle\caches\transforms-2\files-2.1\3904a24fd29f938c9ef9d4a89346c7f0\jetified-facebook-core-4.39.0\AndroidManifest.xml:48:25-92
